﻿"Study Name","Environment","Child Arm Name","Child Visit Name","Child Form Name","Child Field Name","Child Friendly Name","Child Utility Field Name","Parent Arm Name","Parent Visit Name","Parent Form Name","Parent Field Name","Parent Friendly Name"
Harmony Biosciences HBS-101-CL-010,Build,Default,Screening Visit 1,C-SSRS,nc_ICSignedDate_CF,IC Signed Date from Screening child field,"",Default,Informed Consent,Informed Consent Form,nc_ICSignedDate,IC signed date
Harmony Biosciences HBS-101-CL-010,Build,Default,Baseline Visit 2,C-SSRS,nc_ICSignedDate_CF,IC Signed Date from Screening child field,"",Default,Informed Consent,Informed Consent Form,nc_ICSignedDate,IC signed date
Harmony Biosciences HBS-101-CL-010,Build,Default,Baseline Visit 2,C-SSRS,nc_CSSDate_CF,C-SSRS Baseline Screening Date,"",Default,Screening Visit 1,C-SSRS,CSSDate,Assessment Date
Harmony Biosciences HBS-101-CL-010,Build,Default,Baseline Visit 2,CGI-S,nc_CSSCompletionDate_CF,C-SSRS SLV Baseline Visit 2 Date,"",Default,Baseline Visit 2,C-SSRS,CSSCompletionDate,Assessment Date
Harmony Biosciences HBS-101-CL-010,Build,Default,Baseline Visit 2,CGI-S,nc_CSSDate_CF,C-SSRS Baseline Screening Date,"",Default,Screening Visit 1,C-SSRS,CSSDate,Assessment Date
Harmony Biosciences HBS-101-CL-010,Build,Default,Baseline Visit 2,CGI-S,nc_ICSignedDate_CF,IC Signed Date from Screening child field,"",Default,Informed Consent,Informed Consent Form,nc_ICSignedDate,IC signed date
Harmony Biosciences HBS-101-CL-010,Build,Default,W2 TC1,C-SSRS,nc_CSSCompletionDate_CF,C-SSRS SLV Baseline Visit 2 Date,"",Default,Baseline Visit 2,C-SSRS,CSSCompletionDate,Assessment Date
Harmony Biosciences HBS-101-CL-010,Build,Default,W3 TC2,C-SSRS,nc_CSSCompletionDate_CF,C-SSRS SLV Baseline Visit 2 Date,"",Default,Baseline Visit 2,C-SSRS,CSSCompletionDate,Assessment Date
Harmony Biosciences HBS-101-CL-010,Build,Default,W4 Visit 3,C-SSRS,nc_CSSCompletionDate_CF,C-SSRS SLV Baseline Visit 2 Date,"",Default,Baseline Visit 2,C-SSRS,CSSCompletionDate,Assessment Date
Harmony Biosciences HBS-101-CL-010,Build,Default,W4 Visit 3,CGI-S,nc_CSSCompletionDate_CF,C-SSRS SLV Baseline Visit 2 Date,"",Default,Baseline Visit 2,C-SSRS,CSSCompletionDate,Assessment Date
Harmony Biosciences HBS-101-CL-010,Build,Default,W5 TC3,C-SSRS,nc_CSSCompletionDate_CF,C-SSRS SLV Baseline Visit 2 Date,"",Default,Baseline Visit 2,C-SSRS,CSSCompletionDate,Assessment Date
Harmony Biosciences HBS-101-CL-010,Build,Default,W6 TC4,C-SSRS,nc_CSSCompletionDate_CF,C-SSRS SLV Baseline Visit 2 Date,"",Default,Baseline Visit 2,C-SSRS,CSSCompletionDate,Assessment Date
Harmony Biosciences HBS-101-CL-010,Build,Default,W7 TC5,C-SSRS,nc_CSSCompletionDate_CF,C-SSRS SLV Baseline Visit 2 Date,"",Default,Baseline Visit 2,C-SSRS,CSSCompletionDate,Assessment Date
Harmony Biosciences HBS-101-CL-010,Build,Default,W8 TC6,C-SSRS,nc_CSSCompletionDate_CF,C-SSRS SLV Baseline Visit 2 Date,"",Default,Baseline Visit 2,C-SSRS,CSSCompletionDate,Assessment Date
Harmony Biosciences HBS-101-CL-010,Build,Default,W8 Visit 4,C-SSRS,nc_CSSCompletionDate_CF,C-SSRS SLV Baseline Visit 2 Date,"",Default,Baseline Visit 2,C-SSRS,CSSCompletionDate,Assessment Date
Harmony Biosciences HBS-101-CL-010,Build,Default,W8 Visit 4,CGI-S,nc_CSSCompletionDate_CF,C-SSRS SLV Baseline Visit 2 Date,"",Default,Baseline Visit 2,C-SSRS,CSSCompletionDate,Assessment Date
Harmony Biosciences HBS-101-CL-010,Build,Default,W11 TC7,C-SSRS,nc_CSSCompletionDate_CF,C-SSRS SLV Baseline Visit 2 Date,"",Default,Baseline Visit 2,C-SSRS,CSSCompletionDate,Assessment Date
Harmony Biosciences HBS-101-CL-010,Build,Default,W11 TC7,CGI-S,nc_CSSCompletionDate_CF,C-SSRS SLV Baseline Visit 2 Date,"",Default,Baseline Visit 2,C-SSRS,CSSCompletionDate,Assessment Date
Harmony Biosciences HBS-101-CL-010,Build,Default,W12 Visit 5 EOT/ET,C-SSRS,nc_CSSCompletionDate_CF,C-SSRS SLV Baseline Visit 2 Date,"",Default,Baseline Visit 2,C-SSRS,CSSCompletionDate,Assessment Date
Harmony Biosciences HBS-101-CL-010,Build,Default,W12 Visit 5 EOT/ET,CGI-S,nc_CSSCompletionDate_CF,C-SSRS SLV Baseline Visit 2 Date,"",Default,Baseline Visit 2,C-SSRS,CSSCompletionDate,Assessment Date
Harmony Biosciences HBS-101-CL-010,Build,Default,Unscheduled Visit,C-SSRS,nc_ICSignedDate_CF,IC Signed Date from Screening child field,"",Default,Informed Consent,Informed Consent Form,nc_ICSignedDate,IC signed date
