﻿StudyName,Environment,TriggerType,ParentArm,ParentVisit,TriggerForm,ChildArm,ChildVisit,ConditionalForm,Trigger
Otsuka 331-201-00176,live,Visit,Cohort 1,Day 58 Visit,Day 58 Visit Form,Cohort 1,Day 65 Visit,,Form Save
Otsuka 331-201-00176,live,Visit,Cohort 1,Day 21 Visit,Day 21 Visit Form,Cohort 1,Day 22 Visit,,Form Save
Otsuka 331-201-00176,live,Visit,Cohort 2/3,Day 3 Visit,Day 3 Visit Form,Cohort 2/3,Day 4 Visit,,Form Save
Otsuka 331-201-00176,live,Visit,Cohort 2/3,Day 14 Visit,Day 14 Visit Form,Cohort 2/3,Unscheduled Visit,,Form Save
Otsuka 331-201-00176,live,Visit,Cohort 2/3,Day 16 Visit,Day 16 Visit Form,Cohort 2/3,Day 17 Visit,,Form Save
Otsuka 331-201-00176,live,Visit,Cohort 1,Day 51 Visit,Day 51 Visit Form,Cohort 1,Day 58 Visit,,Form Save
Otsuka 331-201-00176,live,Visit,Cohort 1,Day 24 Visit,Day 24 Visit Form,Cohort 1,Day 26 Visit,,Form Save
Otsuka 331-201-00176,live,Visit,Cohort 2/3,Day 8 Visit,Day 8 Visit Form,Cohort 2/3,Day 9 Visit,,Form Save
Otsuka 331-201-00176,live,Visit,Cohort 2/3,Day 13 Visit,Day 13 Visit Form,Cohort 2/3,Day 14 Visit,,Form Save
Otsuka 331-201-00176,live,Visit,Cohort 2/3,Day 4 Visit,Day 4 Visit Form,Cohort 2/3,Day 5 Visit,,Form Save
Otsuka 331-201-00176,live,Visit,Cohort 2/3,Day 17 Visit,Day 17 Visit Form,Cohort 2/3,Day 18 Visit,,Form Save
Otsuka 331-201-00176,live,Visit,Cohort 1,Day 3 Visit,Day 3 Visit Form,Cohort 1,Day 4 Visit,,Form Save
Otsuka 331-201-00176,live,Visit,Cohort 1,Day 93 Visit,Day 93 Visit Form,Cohort 1,Day 107 Visit,,Form Save
Otsuka 331-201-00176,live,Visit,Cohort 2/3,Day 42 Visit,Day 42 Visit Form,Cohort 2/3,Day 49 Visit,,Form Save
Otsuka 331-201-00176,live,Visit,Cohort 2/3,Day 19 Visit,Day 19 Visit Form,Cohort 2/3,Day 20 Visit,,Form Save
Otsuka 331-201-00176,live,Visit,Cohort 2/3,Day 70 Visit,Day 70 Visit Form,Cohort 2/3,Day 77 Visit,,Form Save
Otsuka 331-201-00176,live,Visit,Cohort 1,Day 37 Visit,Day 37 Visit Form,Cohort 1,Day 44 Visit,,Form Save
Otsuka 331-201-00176,live,Visit,Cohort 1,Day 19 Visit,Day 19 Visit Form,Cohort 1,Day 20 Visit,,Form Save
Otsuka 331-201-00176,live,Visit,Cohort 2/3,Day 11 Visit,Day 11 Visit Form,Cohort 2/3,Day 13 Visit,,Form Save
Otsuka 331-201-00176,live,Visit,Cohort 1,Day 17 Visit,Day 17 Visit Form,Cohort 1,Day 18 Visit,,Form Save
Otsuka 331-201-00176,live,Visit,Cohort 2/3,Baseline Day 1 Post-Enrollment Visit,Baseline Day 1 Post-Enrollment Visit Form,Cohort 2/3,Day 2 Visit,,Form Save
Otsuka 331-201-00176,live,Visit,Cohort 1,Day 30 Visit,Day 30 Visit Form,Cohort 1,Day 34 Visit,,Form Save
Otsuka 331-201-00176,live,Visit,Cohort 1,Day 18 Visit,Day 18 Visit Form,Cohort 1,Day 19 Visit,,Form Save
Otsuka 331-201-00176,live,Visit,Cohort 1,Day 23 Visit,Day 23 Visit Form,Cohort 1,Day 24 Visit,,Form Save
Otsuka 331-201-00176,live,Visit,Cohort 2/3,Day 20 Visit,Day 20 Visit Form,Cohort 2/3,Day 21 Visit,,Form Save
Otsuka 331-201-00176,live,Visit,Cohort 1,Day 44 Visit,Day 44 Visit Form,Cohort 1,Day 51 Visit,,Form Save
Otsuka 331-201-00176,live,Visit,Cohort 1,Day 14 Visit,Day 14 Visit Form,Cohort 1,Day 15 Visit,,Form Save
Otsuka 331-201-00176,live,Visit,Cohort 2/3,Day 10 Visit,Day 10 Visit Form,Cohort 2/3,Day 11 Visit,,Form Save
Otsuka 331-201-00176,live,Visit,Cohort 1,Day 65 Visit,Day 65 Visit Form,Cohort 1,Day 72 Visit,,Form Save
Otsuka 331-201-00176,live,Visit,Cohort 2/3,Day 49 Visit,Day 49 Visit Form,Cohort 2/3,Day 56 Visit,,Form Save
Otsuka 331-201-00176,live,Visit,Cohort 1,Day 28 Visit,Day 28 Visit Form,Cohort 1,Day 30 Visit,,Form Save
Otsuka 331-201-00176,live,Visit,Cohort 2/3,Day 9 Visit,Day 9 Visit Form,Cohort 2/3,Day 10 Visit,,Form Save
Otsuka 331-201-00176,live,Visit,Cohort 1,Day 16 Visit,Day 16 Visit Form,Cohort 1,Day 17 Visit,,Form Save
Otsuka 331-201-00176,live,Visit,Cohort 2/3,Day 7 Visit,Day 7 Visit Form,Cohort 2/3,Day 8 Visit,,Form Save
Otsuka 331-201-00176,live,Visit,Cohort 1,Day 26 Visit,Day 26 Visit Form,Cohort 1,Day 28 Visit,,Form Save
Otsuka 331-201-00176,live,Visit,Cohort 1,Day 22 Visit,Day 22 Visit Form,Cohort 1,Day 23 Visit,,Form Save
Otsuka 331-201-00176,live,Visit,Cohort 2/3,Day 63 Visit,Day 63 Visit Form,Cohort 2/3,Day 70 Visit,,Form Save
Otsuka 331-201-00176,live,Visit,Cohort 1,Day 34 Visit,Day 34 Visit Form,Cohort 1,Day 37 Visit,,Form Save
Otsuka 331-201-00176,live,Visit,Cohort 2/3,Day 21 Visit,Day 21 Visit Form,Cohort 2/3,Day 25 Visit,,Form Save
Otsuka 331-201-00176,live,Visit,Cohort 1,Day 2 Visit,Day 2 Visit Form,Cohort 1,Day 3 Visit,,Form Save
Otsuka 331-201-00176,live,Visit,Cohort 1,Day 20 Visit,Day 20 Visit Form,Cohort 1,Day 21 Visit,,Form Save
Otsuka 331-201-00176,live,Visit,Cohort 1,Day 10 Visit,Day 10 Visit Form,Cohort 1,Day 11 Visit,,Form Save
Otsuka 331-201-00176,live,Visit,Cohort 1,Day 79 Visit,Day 79 Visit Form,Cohort 1,Day 86 Visit,,Form Save
Otsuka 331-201-00176,live,Visit,Cohort 2/3,Day 28 Visit,Day 28 Visit Form,Cohort 2/3,Day 35 Visit,,Form Save
Otsuka 331-201-00176,live,Visit,Cohort 2/3,Day 18 Visit,Day 18 Visit Form,Cohort 2/3,Day 19 Visit,,Form Save
Otsuka 331-201-00176,live,Visit,Cohort 1,Day 15 Visit,Day 15 Visit Form,Cohort 1,Day 16 Visit,,Form Save
Otsuka 331-201-00176,live,Visit,Cohort 1,Day 4 Visit,Day 4 Visit Form,Cohort 1,Day 5 Visit,,Form Save
Otsuka 331-201-00176,live,Visit,Cohort 2/3,Day 25 Visit,Day 25 Visit Form,Cohort 2/3,Day 28 Visit,,Form Save
Otsuka 331-201-00176,live,Visit,Cohort 2/3,Day 2 Visit,Day 2 Visit Form,Cohort 2/3,Day 3 Visit,,Form Save
Otsuka 331-201-00176,live,Visit,Cohort 1,Day 13 Visit,Day 13 Visit Form,Cohort 1,Day 14 Visit,,Form Save
Otsuka 331-201-00176,live,Visit,Cohort 2/3,Day 6 Visit,Day 6 Visit Form,Cohort 2/3,Day 7 Visit,,Form Save
Otsuka 331-201-00176,live,Visit,Cohort 1,Day 9 Visit,Day 9 Visit Form,Cohort 1,Day 10 Visit,,Form Save
Otsuka 331-201-00176,live,Visit,Cohort 2/3,Day 98 Visit,Day 98 Visit Form,Cohort 2/3,Day 112 Visit,,Form Save
Otsuka 331-201-00176,live,Visit,Cohort 1,Day 107 Visit,Day 107 Visit Form,Cohort 1,Day 121 Visit,,Form Save
Otsuka 331-201-00176,live,Visit,Cohort 1,Day 86 Visit,Day 86 Visit Form,Cohort 1,Day 93 Visit,,Form Save
Otsuka 331-201-00176,live,Visit,Cohort 1,Day 12 Visit,Day 12 Visit Form,Cohort 1,Day 13 Visit,,Form Save
Otsuka 331-201-00176,live,Visit,Cohort 1,Day 6 Visit,Day 6 Visit Form,Cohort 1,Day 7 Visit,,Form Save
Otsuka 331-201-00176,live,Visit,Cohort 2/3,Day 56 Visit,Day 56 Visit Form,Cohort 2/3,Day 63 Visit,,Form Save
Otsuka 331-201-00176,live,Visit,Cohort 2/3,Day 5 Visit,Day 5 Visit Form,Cohort 2/3,Day 6 Visit,,Form Save
Otsuka 331-201-00176,live,Visit,Cohort 1,Day 5 Visit,Day 5 Visit Form,Cohort 1,Day 6 Visit,,Form Save
Otsuka 331-201-00176,live,Visit,Cohort 1,Day 7 Visit,Day 7 Visit Form,Cohort 1,Day 8 Visit,,Form Save
Otsuka 331-201-00176,live,Visit,Cohort 2/3,Day 77 Visit,Day 77 Visit Form,Cohort 2/3,Day 84 Visit,,Form Save
Otsuka 331-201-00176,live,Visit,Cohort 1,Baseline Day 1 Post-Enrollment Visit,Baseline Day 1 Post-Enrollment Visit Form,Cohort 1,Day 2 Visit,,Form Save
Otsuka 331-201-00176,live,Visit,Cohort 1,Day 11 Visit,Day 11 Visit Form,Cohort 1,Day 12 Visit,,Form Save
Otsuka 331-201-00176,live,Visit,Cohort 1,Day 8 Visit,Day 8 Visit Form,Cohort 1,Day 9 Visit,,Form Save
Otsuka 331-201-00176,live,Visit,Cohort 2/3,Day 15 Visit,Day 15 Visit Form,Cohort 2/3,Day 16 Visit,,Form Save
Otsuka 331-201-00176,live,Visit,Cohort 1,Day 72 Visit,Day 72 Visit Form,Cohort 1,Day 79 Visit,,Form Save
Otsuka 331-201-00176,live,Visit,Cohort 2/3,Day 35 Visit,Day 35 Visit Form,Cohort 2/3,Day 42 Visit,,Form Save
Otsuka 331-201-00176,live,Visit,Cohort 2/3,Day 84 Visit,Day 84 Visit Form,Cohort 2/3,Day 98 Visit,,Form Save
Otsuka 331-201-00176,live,Visit,Screening,Baseline Day 1 Pre-Enrollment Visit,Baseline Day 1 Pre-Enrollment Visit Form,Cohort 1,Baseline Day 1 Post-Enrollment Visit,,vt_cohort1
Otsuka 331-201-00176,live,Visit,Screening,Baseline Day 1 Pre-Enrollment Visit,Baseline Day 1 Pre-Enrollment Visit Form,Cohort 1,Exit Trial,,vt_cohort1
Otsuka 331-201-00176,live,Visit,Screening,Baseline Day 1 Pre-Enrollment Visit,Baseline Day 1 Pre-Enrollment Visit Form,Cohort 1,Day 135 or ET Visit,,vt_cohort1
Otsuka 331-201-00176,live,Visit,Screening,Baseline Day 1 Pre-Enrollment Visit,Baseline Day 1 Pre-Enrollment Visit Form,Cohort 2/3,Day 126/ET Visit,,vt_cohort2
Otsuka 331-201-00176,live,Visit,Screening,Baseline Day 1 Pre-Enrollment Visit,Baseline Day 1 Pre-Enrollment Visit Form,Cohort 2/3,Exit Trial,,vt_cohort2
Otsuka 331-201-00176,live,Visit,Screening,Baseline Day 1 Pre-Enrollment Visit,Baseline Day 1 Pre-Enrollment Visit Form,Cohort 2/3,Baseline Day 1 Post-Enrollment Visit,,vt_cohort2

