"1","Treatment Satisfaction Questionnaire for Medication (TSQM)","TSQM","ST15787","ALK0002 Alkermes ALK21-029","Subject Forms","UAT 1: Substance Use form updated with new Substance Use section template. 9/28/18: form name updated from TFA to TEA, section template/name updated as well. ","2","901_TSQM","TSQM","","8","ALK0002 Alkermes ALK21-029","Ready for Production","TSQM from Carumus 8/28/18"
"1","Demographics","Demographic and History Questions","ST15777","ALK0002 Alkermes ALK21-029","Site Forms","Final UAT: Form order changed, Demographics and History renamed to Demographics, Opioid History Form renamed to Medication-Assisted Treatment HistoryUAT 2: Drug Screen Test Results and Eligibility Criteria forms addedUAT 1: Healthcare Resource Utilization added and Resource Utilization removed from Subject Forms visit","1","01_Demographics and History","Demographics","","2","ALK0002 Alkermes ALK21-029","Ready for Production",""
"1","Medical and Psychiatric History","Medical and Psychiatric History","ST15778","ALK0002 Alkermes ALK21-029","Site Forms","Final UAT: Form order changed, Demographics and History renamed to Demographics, Opioid History Form renamed to Medication-Assisted Treatment HistoryUAT 2: Drug Screen Test Results and Eligibility Criteria forms addedUAT 1: Healthcare Resource Utilization added and Resource Utilization removed from Subject Forms visit","1","02_Medical and Psychiatric History","Medical and Psychiatric History","","3","ALK0002 Alkermes ALK21-029","Ready for Production",""
"1","eConsent Details","eConsent Details","ST15781","ALK0002 Alkermes ALK21-029","eConsent Form","For integration, Does not exist on Tablet. (Displays on Portal only)","4","03_eConsent Form","eConsent Form","","1","ALK0002 Alkermes ALK21-029","Ready for Production","For integration, Does not exist on Tablet. (Displays on Portal only)"
"1","Substance Use","Substance Use","ST16137","ALK0002 Alkermes ALK21-029","Subject Forms","UAT 1: Substance Use form updated with new Substance Use section template. 9/28/18: form name updated from TFA to TEA, section template/name updated as well. ","2","04_Substance Use","Substance Use","10/8/18: Substance Use form updated with new Substance Use section template.","1","ALK0002 Alkermes ALK21-029","Ready for Production",""
"1","Work Productivity and Activity Impairment Questionnaire: Specific Health Problem V2.0 (WPAI-SHP)","WPAI SHP","ST15792","ALK0002 Alkermes ALK21-029","Subject Forms","UAT 1: Substance Use form updated with new Substance Use section template. 9/28/18: form name updated from TFA to TEA, section template/name updated as well. ","2","902_WPAI SHP","WPAI-SHP","","9","ALK0002 Alkermes ALK21-029","Ready for Production",""
"1","Executive Function Index (EFI)","EFI","ST15795","ALK0002 Alkermes ALK21-029","Subject Forms","UAT 1: Substance Use form updated with new Substance Use section template. 9/28/18: form name updated from TFA to TEA, section template/name updated as well. ","2","903_EFI","EFI","","2","ALK0002 Alkermes ALK21-029","Ready for Production",""
"1","Prospective-Retrospective Memory Questionnaire (PRMQ)","PRMQ","ST15796","ALK0002 Alkermes ALK21-029","Subject Forms","UAT 1: Substance Use form updated with new Substance Use section template. 9/28/18: form name updated from TFA to TEA, section template/name updated as well. ","2","904_PRMQ","PRMQ","","3","ALK0002 Alkermes ALK21-029","Ready for Production",""
"1","Bothersomeness Scale","Bothersomeness Scale","ST15797","ALK0002 Alkermes ALK21-029","Subject Forms","UAT 1: Substance Use form updated with new Substance Use section template. 9/28/18: form name updated from TFA to TEA, section template/name updated as well. ","2","905_Bothersomeness Scale","Bothersomeness Scale","","4","ALK0002 Alkermes ALK21-029","Ready for Production",""
"1","Epworth Sleepiness Scale (ESS)","Epworth Sleepiness Scale","ST15794","ALK0002 Alkermes ALK21-029","Subject Forms","UAT 1: Substance Use form updated with new Substance Use section template. 9/28/18: form name updated from TFA to TEA, section template/name updated as well. ","2","906_ESS","ESS","","5","ALK0002 Alkermes ALK21-029","Ready for Production",""
"1","Patient Health Questionnaire-2 (PHQ-2)","PHQ 2","ST15803","ALK0002 Alkermes ALK21-029","Subject Forms","UAT 1: Substance Use form updated with new Substance Use section template. 9/28/18: form name updated from TFA to TEA, section template/name updated as well. ","2","907_PHQ 2","PHQ-2","","6","ALK0002 Alkermes ALK21-029","Ready for Production",""
"1","Treatment Effectiveness Assessment (TEA)","TEA","ST15799","ALK0002 Alkermes ALK21-029","Subject Forms","UAT 1: Substance Use form updated with new Substance Use section template. 9/28/18: form name updated from TFA to TEA, section template/name updated as well. ","2","908_TEA","TEA","","7","ALK0002 Alkermes ALK21-029","Ready for Production","9/28/18 section name/template name updated"
"1","Changes in Sexual Functioning Questionnaire (CSFQ)","Changes in Sexual Functioning Questionnaire","ST15805","ALK0002 Alkermes ALK21-029","Subject Forms","UAT 1: Substance Use form updated with new Substance Use section template. 9/28/18: form name updated from TFA to TEA, section template/name updated as well. ","2","910_CSFQ","CSFQ","","10","ALK0002 Alkermes ALK21-029","Ready for Production",""
"1","Healthcare Resource Utilization","Healthcare Resource Utilization","ST16167","ALK0002 Alkermes ALK21-029","Site Forms","Final UAT: Form order changed, Demographics and History renamed to Demographics, Opioid History Form renamed to Medication-Assisted Treatment HistoryUAT 2: Drug Screen Test Results and Eligibility Criteria forms addedUAT 1: Healthcare Resource Utilization added and Resource Utilization removed from Subject Forms visit","1","909_Resource Utilization","Healthcare Resource Utilization","10/8/18: Resource Utilization section replaced with Healthcare Resource Utilization section template ","5","ALK0002 Alkermes ALK21-029","Ready for Production","UAT 1: copied from/replaced Resource Utilization section"
"1","Healthcare Resource Utilization","Healthcare Resource Utilization add on","ST16146","ALK0002 Alkermes ALK21-029","Add on forms","","3","911_Additional Healthcare Resource Utilization","Additional Healthcare Resource Utilization","","1","ALK0002 Alkermes ALK21-029","Ready for Production","UAT 1: new template"
"1","Medication-Assisted Treatment History","Medication-Assisted Treatment History","ST16182","ALK0002 Alkermes ALK21-029","Site Forms","Final UAT: Form order changed, Demographics and History renamed to Demographics, Opioid History Form renamed to Medication-Assisted Treatment HistoryUAT 2: Drug Screen Test Results and Eligibility Criteria forms addedUAT 1: Healthcare Resource Utilization added and Resource Utilization removed from Subject Forms visit","1","912_Opioid History Form","Medication-Assisted Treatment History","","4","ALK0002 Alkermes ALK21-029","Ready for Production",""
"1","Drug Screen Test Results","Drug Screen Test Results","ST16235","ALK0002 Alkermes ALK21-029","Site Forms","Final UAT: Form order changed, Demographics and History renamed to Demographics, Opioid History Form renamed to Medication-Assisted Treatment HistoryUAT 2: Drug Screen Test Results and Eligibility Criteria forms addedUAT 1: Healthcare Resource Utilization added and Resource Utilization removed from Subject Forms visit","1","05_Drug Screen Test Results","Drug Screen Test Results","","6","ALK0002 Alkermes ALK21-029","Ready for Production",""
"1","Eligibility Criteria","Eligibility Criteria","ST16234","ALK0002 Alkermes ALK21-029","Site Forms","Final UAT: Form order changed, Demographics and History renamed to Demographics, Opioid History Form renamed to Medication-Assisted Treatment HistoryUAT 2: Drug Screen Test Results and Eligibility Criteria forms addedUAT 1: Healthcare Resource Utilization added and Resource Utilization removed from Subject Forms visit","1","06_Eligibility Criteria","Eligibility Criteria","","1","ALK0002 Alkermes ALK21-029","Ready for Production",""
