"1","Visit Information","Visit information for Screening visit","ST18156","ALL0001 Allergan 3143-101-012","Screening Visit","","1","05_Screening Visit Form","Screening Visit Form","","1","ALL0001 Allergan 3143-101-012","Requirements Build","Visit information for Screening visit from: A Standard Library, 16July2019 br."
"2","Informed Consent Signing","Informed Consent Signing","ST18180","ALL0001 Allergan 3143-101-012","Screening Visit","","1","05_Screening Visit Form","Screening Visit Form","","1","ALL0001 Allergan 3143-101-012","Requirements Build","Informed Consent Signing from: A Standard Library"
"4","Reproductive Status and Contraception Use for Females","Reproductive Status and Contraception Use for Females","ST18185","ALL0001 Allergan 3143-101-012","Screening Visit","","1","05_Screening Visit Form","Screening Visit Form","","1","ALL0001 Allergan 3143-101-012","Requirements Build",""
"5","Contraception Use for Males","Contraception Use for Males","ST18186","ALL0001 Allergan 3143-101-012","Screening Visit","","1","05_Screening Visit Form","Screening Visit Form","","1","ALL0001 Allergan 3143-101-012","Section Build",""
"1","Subject Visit Tracker","Subject Visit Tracker","ST18187","ALL0001 Allergan 3143-101-012","Subject Visit Tracker","","2","04_Subject Visit Tracker","Subject Visit Tracker","","1","ALL0001 Allergan 3143-101-012","Form Build",""
"2","General Notes","General Notes with child fields","ST18189","ALL0001 Allergan 3143-101-012","Subject Visit Tracker","","2","04_Subject Visit Tracker","Subject Visit Tracker","","1","ALL0001 Allergan 3143-101-012","Requirements Build",""
"3","Cerebrospinal Fluid Collection Consent Signing","CSF Collection Consent Signing","ST18386","ALL0001 Allergan 3143-101-012","Screening Visit","","1","05_Screening Visit Form","Screening Visit Form","","1","ALL0001 Allergan 3143-101-012","Form Build",""
"6","Demographics and Medical History Review","Demographics and Medical History Review","ST18182","ALL0001 Allergan 3143-101-012","Screening Visit","","1","05_Screening Visit Form","Screening Visit Form","","1","ALL0001 Allergan 3143-101-012","Requirements Build",""
"8","Body Measurements","Body Measurements Screening","ST18387","ALL0001 Allergan 3143-101-012","Screening Visit","","1","05_Screening Visit Form","Screening Visit Form","","1","ALL0001 Allergan 3143-101-012","Section Build","Body Measurements from: A Standard Library, 11Jul19 br."
"1","Safety Review Form","Safety Review Form","ST18190",,,,,,,,,"ALL0001 Allergan 3143-101-012","Requirements Build",""
"2","General Notes","General Notes without child fields","ST18188",,,,,,,,,"ALL0001 Allergan 3143-101-012","Requirements Build",""
"1","Neuropsychiatric Inventory (NPI)","Neuropsychiatric Inventory (NPI)","ST18404","ALL0001 Allergan 3143-101-012","Baseline Day -1 Visit","","5","902_NPI","NPI","","2","ALL0001 Allergan 3143-101-012","Form Build","Copied Neuropsychiatric Inventory (NPI) from COG0005 Biogen 251AD201, 12JUL2019, br."
"1","Modified Rosen Hachinski Ischemia score","Modified Rosen Hachinski Ischemia score","ST18402","ALL0001 Allergan 3143-101-012","Screening Visit","","1","901_Rosen Hachinscki Ischemia score","Modified Rosen Hachinski Ischemia score","","4","ALL0001 Allergan 3143-101-012","Form Build","Copied from Hachinski Ischemic Scale (Rosen Modification) in INC003 Otsuka 331-14-213 12JUL2019, br."
"1","Modified Rosen Hachinski Ischemia score","Modified Rosen Hachinski Ischemia score add on","ST18403","ALL0001 Allergan 3143-101-012","Add On Forms","","91","908_Add On Rosen Hachinski","Additional Modified Rosen Hachinski","","1","ALL0001 Allergan 3143-101-012","Form Build","Copied from Hachinski Ischemic Scale add-on in INC003 Otsuka 331-14-213 12JUL2019, br."
"1","Neuropsychiatric Inventory (NPI)","Neuropsychiatric Inventory (NPI) for add on","ST18406","ALL0001 Allergan 3143-101-012","Add On Forms","","91","909_Add On NPI","Additional NPI","","2","ALL0001 Allergan 3143-101-012","Form Build","Copied Neuropsychiatric Inventory (NPI) from COG0005 Biogen 251AD201, 15JUL2019, br."
"1","Columbia-Suicide Severity Rating Scale (C-SSRS)","C SSRS ScreeningBaseline","ST18395","ALL0001 Allergan 3143-101-012","Screening Visit","","1","903_CSSRS Screening Baseline","CSSRS Screening Baseline","","3","ALL0001 Allergan 3143-101-012","Form Build","C SSRS ScreeningBaseline from Otsuka (CI) Standard Library; Updated 25Jun2019"
"1","PITTSBURGH SLEEP QUALITY INDEX ","PSQI","ST18502","ALL0001 Allergan 3143-101-012","Baseline Day -3 Visit","","4","906_PSQI","PSQI","","6","ALL0001 Allergan 3143-101-012","Requirements Build",""
"1","Physical Examination","Physical Examination for add on","ST18178","ALL0001 Allergan 3143-101-012","Add On Forms","","91","","Additional Physical Exam","","3","ALL0001 Allergan 3143-101-012","Requirements Build","Physical Examination from: A Standard Library, 8July2019."
"1","Physical Examination","Symptom Driven Physical Examination","ST18392","ALL0001 Allergan 3143-101-012","Add On Forms","","91","","Symptom Driven Physical Exam","","5","ALL0001 Allergan 3143-101-012","Requirements Build","copied from Physical Examination for add on with no changes, 11Jul2019."
"1","Neuropsychiatric Inventory- Questionnaire (NPI-Q) Summary","NPI-Q Summary","ST18430","ALL0001 Allergan 3143-101-012","Baseline Day -3 Visit","","4","911_NPIQ Score Form","NPI-Q Score Form","","5","ALL0001 Allergan 3143-101-012","Form Build",""
"1","Columbia-Suicide Severity Rating Scale (C-SSRS)","C SSRS Since last visit","ST18397","ALL0001 Allergan 3143-101-012","Baseline Day -3 Visit","","4","904_CSSRS Since Last Visit","CSSRS Since Last Visit","","3","ALL0001 Allergan 3143-101-012","Form Build","C SSRS Since last visit from Otsuka (CI) Standard Library; Updated 25Jun2019"
"1","Neuropsychiatric Inventory- Questionnaire (NPI-Q)","NPI-Q","ST18399","ALL0001 Allergan 3143-101-012","Baseline Day -3 Visit","","4","905_NPIQ","NPI-Q","","4","ALL0001 Allergan 3143-101-012","Form Build",""
"1","Simpson-Angus Neurological Rating Scale (SAS)","SAS","ST18417","ALL0001 Allergan 3143-101-012","Baseline Day -3 Visit","","4","907_SAS","SAS","","7","ALL0001 Allergan 3143-101-012","Form Build","Otsuka (CI) Standard Library; Updated 25Jun2019"
"1","Meal Log","Meal Log","ST18440",,,,,"","Discharge Form","","1","ALL0001 Allergan 3143-101-012","Requirements Build",""
"1","Meal Log","Meal Log","ST18440",,,,,"","Discharge Form","","1","ALL0001 Allergan 3143-101-012","Requirements Build",""
"1","Meal Log","Meal Log","ST18440",,,,,"","Discharge Form","","1","ALL0001 Allergan 3143-101-012","Requirements Build",""
"2","General Notes","General Notes with child fields for Discharge and EOS","ST18443",,,,,"","Discharge Form","","1","ALL0001 Allergan 3143-101-012","Requirements Build",""
"7","Substance Use Review","Substance Use Review","ST18470","ALL0001 Allergan 3143-101-012","Screening Visit","","1","05_Screening Visit Form","Screening Visit Form","","1","ALL0001 Allergan 3143-101-012","Requirements Build",""
"11","Eligibility Criteria Review","Eligibility Criteria Review for Screening Visit","ST18459","ALL0001 Allergan 3143-101-012","Baseline Day -3 Visit","","4","07_Baseline Day -3 Visit Form","Baseline Day -3 Visit Form","","1","ALL0001 Allergan 3143-101-012","Requirements Build",""
"9","Physical Examination","Physical Examination","ST18176","ALL0001 Allergan 3143-101-012","Baseline Day -3 Visit","","4","07_Baseline Day -3 Visit Form","Baseline Day -3 Visit Form","","1","ALL0001 Allergan 3143-101-012","Requirements Build","Physical Examination from: A Standard Library, 8July2019."
"10","Physical Examination","Physical Examination","ST18176","ALL0001 Allergan 3143-101-012","Screening Visit","","1","05_Screening Visit Form","Screening Visit Form","","1","ALL0001 Allergan 3143-101-012","Requirements Build","Physical Examination from: A Standard Library, 8July2019."
"9","Vital Signs","Vital Signs at Screening","ST18489","ALL0001 Allergan 3143-101-012","Screening Visit","","1","05_Screening Visit Form","Screening Visit Form","","1","ALL0001 Allergan 3143-101-012","Requirements Build","Vital Signs from: A Standard Library 18Jul2019 br."
"1","Eligibility Criteria","Eligibility Criteria","ST18383","ALL0001 Allergan 3143-101-012","Eligibility Criteria","","3","06_Eligibility Criteria","Eligibility Criteria","","1","ALL0001 Allergan 3143-101-012","Section Build",""
"2","Vital Signs","Vital Signs at Baseline","ST18598","ALL0001 Allergan 3143-101-012","Baseline Day -3 Visit","","4","07_Baseline Day -3 Visit Form","Baseline Day -3 Visit Form","","1","ALL0001 Allergan 3143-101-012","Requirements Build","copied from Vital Signs at Screening above with updates, 25Jul2019 br."
"4","Vital Signs","Vital Signs at Baseline 1 Hour","ST18603","ALL0001 Allergan 3143-101-012","Baseline Day -3 Visit","","4","07_Baseline Day -3 Visit Form","Baseline Day -3 Visit Form","","1","ALL0001 Allergan 3143-101-012","Requirements Build","copied from Vital Signs at Baseline 30 min above with updates, 25Jul2019 br."
"5","Vital Signs","Vital Signs at Baseline 2 Hour","ST18604","ALL0001 Allergan 3143-101-012","Baseline Day -3 Visit","","4","07_Baseline Day -3 Visit Form","Baseline Day -3 Visit Form","","1","ALL0001 Allergan 3143-101-012","Requirements Build","copied from Vital Signs at Baseline 30 min above with updates, 25Jul2019 br."
"6","Vital Signs","Vital Signs at Baseline 3 Hour","ST18605","ALL0001 Allergan 3143-101-012","Baseline Day -3 Visit","","4","07_Baseline Day -3 Visit Form","Baseline Day -3 Visit Form","","1","ALL0001 Allergan 3143-101-012","Requirements Build","copied from Vital Signs at Baseline 30 min above with updates, 25Jul2019 br."
"7","Vital Signs","Vital Signs at Baseline 4 Hour","ST18606","ALL0001 Allergan 3143-101-012","Baseline Day -3 Visit","","4","07_Baseline Day -3 Visit Form","Baseline Day -3 Visit Form","","1","ALL0001 Allergan 3143-101-012","Requirements Build","copied from Vital Signs at Baseline 30 min above with updates, 25Jul2019 br."
"3","Vital Signs","Vital Signs at Baseline 30 min","ST18601","ALL0001 Allergan 3143-101-012","Baseline Day -3 Visit","","4","07_Baseline Day -3 Visit Form","Baseline Day -3 Visit Form","","1","ALL0001 Allergan 3143-101-012","Requirements Build","copied from Vital Signs at Baseline above with updates, 25Jul2019 br."
"8","Vital Signs","Vital Signs at Baseline 8 Hour","ST18608","ALL0001 Allergan 3143-101-012","Baseline Day -3 Visit","","4","07_Baseline Day -3 Visit Form","Baseline Day -3 Visit Form","","1","ALL0001 Allergan 3143-101-012","Requirements Build","copied from Vital Signs at Baseline 30 min above with updates, 25Jul2019 br."
"2","Central Laboratory Sample Collection","Central Laboratory Sample Collection pre AM Dose","ST18515","ALL0001 Allergan 3143-101-012","5 mg QD Day 1 Visit","","6","09_5 mg QD Day 1 Visit Form","5 mg QD Day 1 Visit Form","","1","ALL0001 Allergan 3143-101-012","Requirements Build",""
"3","Central Laboratory Sample Collection","Central Laboratory Sample Collection pre AM Dose","ST18515","ALL0001 Allergan 3143-101-012","5 mg QD Day 5 Visit","","10","13_5 mg QD Day 5 Visit Form","5 mg QD Day 5 Visit Form","","1","ALL0001 Allergan 3143-101-012","Requirements Build",""
"2","Meal Log","Meal Log at Breakfast","ST18440","ALL0001 Allergan 3143-101-012","5 mg QD Day 5 Visit","","10","13_5 mg QD Day 5 Visit Form","5 mg QD Day 5 Visit Form","","1","ALL0001 Allergan 3143-101-012","Requirements Build",""
"16","General Notes","General Notes without child fields","ST18188","ALL0001 Allergan 3143-101-012","Screening Visit","","1","05_Screening Visit Form","Screening Visit Form","","1","ALL0001 Allergan 3143-101-012","Requirements Build",""
"1","Visit Information","Visit information for 5 mg Visits","ST18435","ALL0001 Allergan 3143-101-012","5 mg QD Day 1 Visit","","6","09_5 mg QD Day 1 Visit Form","5 mg QD Day 1 Visit Form","","1","ALL0001 Allergan 3143-101-012","Requirements Build","Visit information for post Baseline visit from: A Standard Library, 16July2019 br."
"1","Visit Information","Visit information for Baseline Day -3 visit","ST18157","ALL0001 Allergan 3143-101-012","Baseline Day -3 Visit","","4","07_Baseline Day -3 Visit Form","Baseline Day -3 Visit Form","","1","ALL0001 Allergan 3143-101-012","Requirements Build","Visit information for post Baseline visit from: A Standard Library, 16July2019 br."
"1","Visit Information","Visit information for Baseline Day -1 visit","ST18436","ALL0001 Allergan 3143-101-012","Baseline Day -1 Visit","","5","08_Baseline Day -1 Visit Form","Baseline Day -1 Visit Form","","1","ALL0001 Allergan 3143-101-012","Requirements Build","Visit information for post Baseline visit from: A Standard Library, 16July2019 br."
"1","Visit Information","Visit information for 5 mg Visits","ST18435","ALL0001 Allergan 3143-101-012","5 mg QD Day 2 Visit","","7","10_5 mg QD Day 2 Visit Form","5 mg QD Day 2 Visit Form","","1","ALL0001 Allergan 3143-101-012","Requirements Build","Visit information for post Baseline visit from: A Standard Library, 16July2019 br."
"1","Visit Information","Visit information for 5 mg Visits","ST18435","ALL0001 Allergan 3143-101-012","5 mg QD Day 3 Visit","","8","11_5 mg QD Day 3 Visit Form","5 mg QD Day 3 Visit Form","","1","ALL0001 Allergan 3143-101-012","Requirements Build","Visit information for post Baseline visit from: A Standard Library, 16July2019 br."
"1","Visit Information","Visit information for 5 mg Visits","ST18435","ALL0001 Allergan 3143-101-012","5 mg QD Day 4 Visit","","9","12_5 mg QD Day 4 Visit Form","5 mg QD Day 4 Visit Form","","1","ALL0001 Allergan 3143-101-012","Requirements Build","Visit information for post Baseline visit from: A Standard Library, 16July2019 br."
"1","Visit Information","Visit information for 5 mg Visits","ST18435","ALL0001 Allergan 3143-101-012","5 mg QD Day 5 Visit","","10","13_5 mg QD Day 5 Visit Form","5 mg QD Day 5 Visit Form","","1","ALL0001 Allergan 3143-101-012","Requirements Build","Visit information for post Baseline visit from: A Standard Library, 16July2019 br."
"1","Visit Information","Visit information for 5 mg Visits","ST18435","ALL0001 Allergan 3143-101-012","5 mg QD Day 6 Visit","","11","14_5 mg QD Day 6 Visit Form","5 mg QD Day 6 Visit Form","","1","ALL0001 Allergan 3143-101-012","Requirements Build","Visit information for post Baseline visit from: A Standard Library, 16July2019 br."
"1","Visit Information","Visit information for 5 mg Visits","ST18435","ALL0001 Allergan 3143-101-012","5 mg QD Day 7 Visit","","12","15_5 mg QD Day 7 Visit Form","5 mg QD Day 7 Visit Form","","1","ALL0001 Allergan 3143-101-012","Requirements Build","Visit information for post Baseline visit from: A Standard Library, 16July2019 br."
"1","Visit Information","Visit information for Titration Visits","ST18434","ALL0001 Allergan 3143-101-012","10 mg QD Day 1 Visit","","13","16_10 mg QD Day 1 Visit Form","10 mg QD Day 1 Visit Form","","1","ALL0001 Allergan 3143-101-012","Requirements Build","Visit information for post Baseline visit from: A Standard Library, 16July2019 br."
"1","Visit Information","Visit information for Titration Visits","ST18434",,,,,,,,,"ALL0001 Allergan 3143-101-012","Requirements Build","Visit information for post Baseline visit from: A Standard Library, 16July2019 br."
"1","Visit Information","Visit information for Titration Visits","ST18434","ALL0001 Allergan 3143-101-012","10 mg QD Day 6 Visit","","18","21_10 mg QD Day 6 Visit Form","10 mg QD Day 6 Visit Form","","1","ALL0001 Allergan 3143-101-012","Requirements Build","Visit information for post Baseline visit from: A Standard Library, 16July2019 br."
"1","Visit Information","Visit information for Titration Visits","ST18434","ALL0001 Allergan 3143-101-012","10 mg QD Day 7 Visit","","19","22_10 mg QD Day 7 Visit Form","10 mg QD Day 7 Visit Form","","1","ALL0001 Allergan 3143-101-012","Requirements Build","Visit information for post Baseline visit from: A Standard Library, 16July2019 br."
"3","Safety Review Form","Safety Review Form 5 and 10 mg dose","ST18190","ALL0001 Allergan 3143-101-012","10 mg QD Day 7 Visit","","19","22_10 mg QD Day 7 Visit Form","10 mg QD Day 7 Visit Form","","1","ALL0001 Allergan 3143-101-012","Requirements Build",""
"2","Safety Review Form","Safety Review Form 5 and 10 mg dose","ST18190","ALL0001 Allergan 3143-101-012","5 mg QD Day 7 Visit","","12","15_5 mg QD Day 7 Visit Form","5 mg QD Day 7 Visit Form","","1","ALL0001 Allergan 3143-101-012","Requirements Build",""
"1","Visit Information","Visit information for Titration Visits","ST18434","ALL0001 Allergan 3143-101-012","10 mg QD Day 2 Visit","","14","17_10 mg QD Day 2 Visit Form","10 mg QD Day 2 Visit Form","","1","ALL0001 Allergan 3143-101-012","Requirements Build","Visit information for post Baseline visit from: A Standard Library, 16July2019 br."
"1","IMP Administration AM Dose","IMP Administration AM Dose","ST18467","ALL0001 Allergan 3143-101-012","10 mg QD Day 2 Visit","","14","17_10 mg QD Day 2 Visit Form","10 mg QD Day 2 Visit Form","","1","ALL0001 Allergan 3143-101-012","Requirements Build","OSL updated 6/14/19:  IMP Dispensation from Otsuka (CI) Standard Library"
"1","Visit Information","Visit information for Titration Visits","ST18434","ALL0001 Allergan 3143-101-012","10 mg QD Day 3 Visit","","15","18_10 mg QD Day 3 Visit Form","10 mg QD Day 3 Visit Form","","1","ALL0001 Allergan 3143-101-012","Requirements Build","Visit information for post Baseline visit from: A Standard Library, 16July2019 br."
"2","IMP Administration AM Dose","IMP Administration 5mg thru 20 mg QD Days 3 thru 7","ST18548","ALL0001 Allergan 3143-101-012","10 mg QD Day 3 Visit","","15","18_10 mg QD Day 3 Visit Form","10 mg QD Day 3 Visit Form","","1","ALL0001 Allergan 3143-101-012","Requirements Build","OSL updated 6/14/19:  IMP Dispensation from Otsuka (CI) Standard Library"
"1","Visit Information","Visit information for Titration Visits","ST18434","ALL0001 Allergan 3143-101-012","10 mg QD Day 4 Visit","","16","19_10 mg QD Day 4 Visit Form","10 mg QD Day 4 Visit Form","","1","ALL0001 Allergan 3143-101-012","Requirements Build","Visit information for post Baseline visit from: A Standard Library, 16July2019 br."
"2","IMP Administration AM Dose","IMP Administration 5mg thru 20 mg QD Days 3 thru 7","ST18548","ALL0001 Allergan 3143-101-012","10 mg QD Day 4 Visit","","16","19_10 mg QD Day 4 Visit Form","10 mg QD Day 4 Visit Form","","1","ALL0001 Allergan 3143-101-012","Requirements Build","OSL updated 6/14/19:  IMP Dispensation from Otsuka (CI) Standard Library"
"1","Visit Information","Visit information for Titration Visits","ST18434","ALL0001 Allergan 3143-101-012","10 mg QD Day 5 Visit","","17","20_10 mg QD Day 5 Visit Form","10 mg QD Day 5 Visit Form","","1","ALL0001 Allergan 3143-101-012","Requirements Build","Visit information for post Baseline visit from: A Standard Library, 16July2019 br."
"2","IMP Administration AM Dose","IMP Administration 5mg thru 20 mg QD Days 3 thru 7","ST18548","ALL0001 Allergan 3143-101-012","10 mg QD Day 5 Visit","","17","20_10 mg QD Day 5 Visit Form","10 mg QD Day 5 Visit Form","","1","ALL0001 Allergan 3143-101-012","Requirements Build","OSL updated 6/14/19:  IMP Dispensation from Otsuka (CI) Standard Library"
"1","Visit Information","Visit information for Titration Visits","ST18434","ALL0001 Allergan 3143-101-012","10 mg QD Day 5 Visit","","17","20_10 mg QD Day 5 Visit Form","10 mg QD Day 5 Visit Form","","1","ALL0001 Allergan 3143-101-012","Requirements Build","Visit information for post Baseline visit from: A Standard Library, 16July2019 br."
"2","IMP Administration AM Dose","IMP Administration 5mg thru 20 mg QD Days 3 thru 7","ST18548","ALL0001 Allergan 3143-101-012","10 mg QD Day 6 Visit","","18","21_10 mg QD Day 6 Visit Form","10 mg QD Day 6 Visit Form","","1","ALL0001 Allergan 3143-101-012","Requirements Build","OSL updated 6/14/19:  IMP Dispensation from Otsuka (CI) Standard Library"
"2","IMP Administration AM Dose","IMP Administration 5mg thru 20 mg QD Days 3 thru 7","ST18548","ALL0001 Allergan 3143-101-012","10 mg QD Day 7 Visit","","19","22_10 mg QD Day 7 Visit Form","10 mg QD Day 7 Visit Form","","1","ALL0001 Allergan 3143-101-012","Requirements Build","OSL updated 6/14/19:  IMP Dispensation from Otsuka (CI) Standard Library"
"2","IMP Administration AM Dose","IMP Administration AM Dose","ST18467","ALL0001 Allergan 3143-101-012","10 mg QD Day 1 Visit","","13","16_10 mg QD Day 1 Visit Form","10 mg QD Day 1 Visit Form","","1","ALL0001 Allergan 3143-101-012","Requirements Build","OSL updated 6/14/19:  IMP Dispensation from Otsuka (CI) Standard Library"
"3","IMP Administration AM Dose","IMP Administration AM Dose","ST18467","ALL0001 Allergan 3143-101-012","5 mg QD Day 1 Visit","","6","09_5 mg QD Day 1 Visit Form","5 mg QD Day 1 Visit Form","","1","ALL0001 Allergan 3143-101-012","Requirements Build","OSL updated 6/14/19:  IMP Dispensation from Otsuka (CI) Standard Library"
"2","IMP Administration AM Dose","IMP Administration AM Dose","ST18467","ALL0001 Allergan 3143-101-012","5 mg QD Day 2 Visit","","7","10_5 mg QD Day 2 Visit Form","5 mg QD Day 2 Visit Form","","1","ALL0001 Allergan 3143-101-012","Requirements Build","OSL updated 6/14/19:  IMP Dispensation from Otsuka (CI) Standard Library"
"2","IMP Administration AM Dose","IMP Administration 5mg thru 20 mg QD Days 3 thru 7","ST18548","ALL0001 Allergan 3143-101-012","5 mg QD Day 3 Visit","","8","11_5 mg QD Day 3 Visit Form","5 mg QD Day 3 Visit Form","","1","ALL0001 Allergan 3143-101-012","Requirements Build","OSL updated 6/14/19:  IMP Dispensation from Otsuka (CI) Standard Library"
"2","IMP Administration AM Dose","IMP Administration 5mg thru 20 mg QD Days 3 thru 7","ST18548","ALL0001 Allergan 3143-101-012","5 mg QD Day 4 Visit","","9","12_5 mg QD Day 4 Visit Form","5 mg QD Day 4 Visit Form","","1","ALL0001 Allergan 3143-101-012","Requirements Build","OSL updated 6/14/19:  IMP Dispensation from Otsuka (CI) Standard Library"
"4","IMP Administration AM Dose","IMP Administration 5mg thru 20 mg QD Days 3 thru 7","ST18548","ALL0001 Allergan 3143-101-012","5 mg QD Day 5 Visit","","10","13_5 mg QD Day 5 Visit Form","5 mg QD Day 5 Visit Form","","1","ALL0001 Allergan 3143-101-012","Requirements Build","OSL updated 6/14/19:  IMP Dispensation from Otsuka (CI) Standard Library"
"2","IMP Administration AM Dose","IMP Administration 5mg thru 20 mg QD Days 3 thru 7","ST18548","ALL0001 Allergan 3143-101-012","5 mg QD Day 6 Visit","","11","14_5 mg QD Day 6 Visit Form","5 mg QD Day 6 Visit Form","","1","ALL0001 Allergan 3143-101-012","Requirements Build","OSL updated 6/14/19:  IMP Dispensation from Otsuka (CI) Standard Library"
"1.1","IMP Administration AM Dose","IMP Administration 5mg thru 20 mg QD Days 3 thru 7","ST18548","ALL0001 Allergan 3143-101-012","5 mg QD Day 7 Visit","","12","15_5 mg QD Day 7 Visit Form","5 mg QD Day 7 Visit Form","","1","ALL0001 Allergan 3143-101-012","Requirements Build","OSL updated 6/14/19:  IMP Dispensation from Otsuka (CI) Standard Library"
"1","Visit Information","Visit information for Titration Visits","ST18434","ALL0001 Allergan 3143-101-012","20 mg QD Day 1 Visit","","20","23_20 mg QD Day 1 Visit Form","20 mg QD Day 1 Visit Form","","1","ALL0001 Allergan 3143-101-012","Requirements Build","Visit information for post Baseline visit from: A Standard Library, 16July2019 br."
"2","IMP Administration AM Dose","IMP Administration AM Dose","ST18467","ALL0001 Allergan 3143-101-012","20 mg QD Day 1 Visit","","20","23_20 mg QD Day 1 Visit Form","20 mg QD Day 1 Visit Form","","1","ALL0001 Allergan 3143-101-012","Requirements Build","OSL updated 6/14/19:  IMP Dispensation from Otsuka (CI) Standard Library"
"1","Visit Information","Visit information for Titration Visits","ST18434","ALL0001 Allergan 3143-101-012","20 mg QD Day 2 Visit","","21","24_20 mg QD Day 2 Visit Form","20 mg QD Day 2 Visit Form","","1","ALL0001 Allergan 3143-101-012","Requirements Build","Visit information for post Baseline visit from: A Standard Library, 16July2019 br."
"1","IMP Administration AM Dose","IMP Administration AM Dose","ST18467","ALL0001 Allergan 3143-101-012","20 mg QD Day 2 Visit","","21","24_20 mg QD Day 2 Visit Form","20 mg QD Day 2 Visit Form","","1","ALL0001 Allergan 3143-101-012","Requirements Build","OSL updated 6/14/19:  IMP Dispensation from Otsuka (CI) Standard Library"
"1","Visit Information","Visit information for Titration Visits","ST18434","ALL0001 Allergan 3143-101-012","20 mg QD Day 4 Visit","","23","26_20 mg QD Day 4 Visit Form","20 mg QD Day 4 Visit Form","","1","ALL0001 Allergan 3143-101-012","Requirements Build","Visit information for post Baseline visit from: A Standard Library, 16July2019 br."
"1","Visit Information","Visit information for Titration Visits","ST18434","ALL0001 Allergan 3143-101-012","20 mg QD Day 3 Visit","","22","25_20 mg QD Day 3 Visit Form","20 mg QD Day 3 Visit Form","","2","ALL0001 Allergan 3143-101-012","Requirements Build","Visit information for post Baseline visit from: A Standard Library, 16July2019 br."
"2","IMP Administration AM Dose","IMP Administration 5mg thru 20 mg QD Days 3 thru 7","ST18548","ALL0001 Allergan 3143-101-012","20 mg QD Day 3 Visit","","22","25_20 mg QD Day 3 Visit Form","20 mg QD Day 3 Visit Form","","2","ALL0001 Allergan 3143-101-012","Requirements Build","OSL updated 6/14/19:  IMP Dispensation from Otsuka (CI) Standard Library"
"2","IMP Administration AM Dose","IMP Administration 5mg thru 20 mg QD Days 3 thru 7","ST18548","ALL0001 Allergan 3143-101-012","20 mg QD Day 4 Visit","","23","26_20 mg QD Day 4 Visit Form","20 mg QD Day 4 Visit Form","","1","ALL0001 Allergan 3143-101-012","Requirements Build","OSL updated 6/14/19:  IMP Dispensation from Otsuka (CI) Standard Library"
"1","Visit Information","Visit information for Titration Visits","ST18434","ALL0001 Allergan 3143-101-012","20 mg QD Day 5 Visit","","24","27_20 mg QD Day 5 Visit Form","20 mg QD Day 5 Visit Form","","1","ALL0001 Allergan 3143-101-012","Requirements Build","Visit information for post Baseline visit from: A Standard Library, 16July2019 br."
"2","IMP Administration AM Dose","IMP Administration 5mg thru 20 mg QD Days 3 thru 7","ST18548","ALL0001 Allergan 3143-101-012","20 mg QD Day 5 Visit","","24","27_20 mg QD Day 5 Visit Form","20 mg QD Day 5 Visit Form","","1","ALL0001 Allergan 3143-101-012","Requirements Build","OSL updated 6/14/19:  IMP Dispensation from Otsuka (CI) Standard Library"
"1","Visit Information","Visit information for Titration Visits","ST18434","ALL0001 Allergan 3143-101-012","20 mg QD Day 6 Visit","","25","28_20 mg QD Day 6 Visit Form","20 mg QD Day 6 Visit Form","","1","ALL0001 Allergan 3143-101-012","Requirements Build","Visit information for post Baseline visit from: A Standard Library, 16July2019 br."
"2","IMP Administration AM Dose","IMP Administration 5mg thru 20 mg QD Days 3 thru 7","ST18548","ALL0001 Allergan 3143-101-012","20 mg QD Day 6 Visit","","25","28_20 mg QD Day 6 Visit Form","20 mg QD Day 6 Visit Form","","1","ALL0001 Allergan 3143-101-012","Requirements Build","OSL updated 6/14/19:  IMP Dispensation from Otsuka (CI) Standard Library"
"1","Visit Information","Visit information for Titration Visits","ST18434","ALL0001 Allergan 3143-101-012","20 mg QD Day 7 Visit","","26","29_20 mg QD Day 7 Visit Form","20 mg QD Day 7 Visit Form","","1","ALL0001 Allergan 3143-101-012","Requirements Build","Visit information for post Baseline visit from: A Standard Library, 16July2019 br."
"2","IMP Administration AM Dose","IMP Administration 5mg thru 20 mg QD Days 3 thru 7","ST18548","ALL0001 Allergan 3143-101-012","20 mg QD Day 7 Visit","","26","29_20 mg QD Day 7 Visit Form","20 mg QD Day 7 Visit Form","","1","ALL0001 Allergan 3143-101-012","Requirements Build","OSL updated 6/14/19:  IMP Dispensation from Otsuka (CI) Standard Library"
"3","Safety Review Form","Safety Review Form","ST18429","ALL0001 Allergan 3143-101-012","20 mg QD Day 7 Visit","","26","29_20 mg QD Day 7 Visit Form","20 mg QD Day 7 Visit Form","","1","ALL0001 Allergan 3143-101-012","Requirements Build",""
"1","Visit Information","Visit information for Maintenance Visits","ST18446","ALL0001 Allergan 3143-101-012","10 mg QD Maintenance Day 1 Visit","","34","30_QD Day 1 Maint Form","10 mg QD Maintenance Day 1 Form","","1","ALL0001 Allergan 3143-101-012","Requirements Build","Visit information for post Baseline visit from: A Standard Library"
"1","IMP Administration AM Dose","IMP Administration AM Dose","ST18467","ALL0001 Allergan 3143-101-012","10 mg QD Maintenance Day 1 Visit","","34","30_QD Day 1 Maint Form","10 mg QD Maintenance Day 1 Form","","1","ALL0001 Allergan 3143-101-012","Requirements Build","OSL updated 6/14/19:  IMP Dispensation from Otsuka (CI) Standard Library"
"1","Visit Information","Visit information for Maintenance Visits","ST18446","ALL0001 Allergan 3143-101-012","10 mg QD Maintenance Day 2 Visit","","35","31_QD Day 2 Maint Form","10 mg QD Maintenance Day 2 Form","","1","ALL0001 Allergan 3143-101-012","Requirements Build","Visit information for post Baseline visit from: A Standard Library"
"2","IMP Administration AM Dose","IMP Administration AM Dose","ST18467","ALL0001 Allergan 3143-101-012","10 mg QD Maintenance Day 2 Visit","","35","31_QD Day 2 Maint Form","10 mg QD Maintenance Day 2 Form","","1","ALL0001 Allergan 3143-101-012","Requirements Build","OSL updated 6/14/19:  IMP Dispensation from Otsuka (CI) Standard Library"
"1","Visit Information","Visit information for Maintenance Visits","ST18446","ALL0001 Allergan 3143-101-012","10 mg QD Maintenance Day 3 Visit","","36","32_QD Day 3 Maint Form","10 mg QD Maintenance Day 3 Form","","1","ALL0001 Allergan 3143-101-012","Requirements Build","Visit information for post Baseline visit from: A Standard Library"
"2","IMP Administration AM Dose","IMP Administration AM Dose","ST18467","ALL0001 Allergan 3143-101-012","10 mg QD Maintenance Day 3 Visit","","36","32_QD Day 3 Maint Form","10 mg QD Maintenance Day 3 Form","","1","ALL0001 Allergan 3143-101-012","Requirements Build","OSL updated 6/14/19:  IMP Dispensation from Otsuka (CI) Standard Library"
"1","Visit Information","Visit information for Maintenance Visits","ST18446","ALL0001 Allergan 3143-101-012","10 mg QD Maintenance Day 4 Visit","","37","33_QD Day 4 Maint Form","10 mg QD Maintenance Day 4 Form","","1","ALL0001 Allergan 3143-101-012","Requirements Build","Visit information for post Baseline visit from: A Standard Library"
"2","IMP Administration AM Dose","IMP Administration AM Dose","ST18467","ALL0001 Allergan 3143-101-012","10 mg QD Maintenance Day 4 Visit","","37","33_QD Day 4 Maint Form","10 mg QD Maintenance Day 4 Form","","1","ALL0001 Allergan 3143-101-012","Requirements Build","OSL updated 6/14/19:  IMP Dispensation from Otsuka (CI) Standard Library"
"1","Visit Information","Visit information for Maintenance Visits","ST18446","ALL0001 Allergan 3143-101-012","10 mg QD Maintenance Day 5 Visit","","38","34_QD Day 5 Maint Form","10 mg QD Maintenance Day 5 Form","","1","ALL0001 Allergan 3143-101-012","Requirements Build","Visit information for post Baseline visit from: A Standard Library"
"2","IMP Administration AM Dose","IMP Administration AM Dose","ST18467","ALL0001 Allergan 3143-101-012","10 mg QD Maintenance Day 5 Visit","","38","34_QD Day 5 Maint Form","10 mg QD Maintenance Day 5 Form","","1","ALL0001 Allergan 3143-101-012","Requirements Build","OSL updated 6/14/19:  IMP Dispensation from Otsuka (CI) Standard Library"
"3","Discharge Form","Discharge Form post Maintenance Period","ST18556","ALL0001 Allergan 3143-101-012","10 mg QD Maintenance Day 5 Visit","","38","34_QD Day 5 Maint Form","10 mg QD Maintenance Day 5 Form","","1","ALL0001 Allergan 3143-101-012","Requirements Build",""
"1","Visit Information","Visit information for Maintenance Visits","ST18446","ALL0001 Allergan 3143-101-012","20 mg QD Maintenance Day 1 Visit","","46","30_QD Day 1 Maint Form","20 mg QD Maintenance Day 1 Form","","2","ALL0001 Allergan 3143-101-012","Requirements Build","Visit information for post Baseline visit from: A Standard Library"
"1","IMP Administration AM Dose","IMP Administration AM Dose","ST18467","ALL0001 Allergan 3143-101-012","20 mg QD Maintenance Day 1 Visit","","46","30_QD Day 1 Maint Form","20 mg QD Maintenance Day 1 Form","","2","ALL0001 Allergan 3143-101-012","Requirements Build","OSL updated 6/14/19:  IMP Dispensation from Otsuka (CI) Standard Library"
"1","Visit Information","Visit information for Maintenance Visits","ST18446","ALL0001 Allergan 3143-101-012","20 mg BID Maintenance Day 1 Visit","","58","30_QD Day 1 Maint Form","20 mg BID Maintenance Day 1 Form","","1","ALL0001 Allergan 3143-101-012","Requirements Build","Visit information for post Baseline visit from: A Standard Library"
"1","IMP Administration AM Dose","IMP Administration AM Dose","ST18467","ALL0001 Allergan 3143-101-012","20 mg BID Maintenance Day 1 Visit","","58","30_QD Day 1 Maint Form","20 mg BID Maintenance Day 1 Form","","1","ALL0001 Allergan 3143-101-012","Requirements Build","OSL updated 6/14/19:  IMP Dispensation from Otsuka (CI) Standard Library"
"1","Visit Information","Visit information for Maintenance Visits","ST18446","ALL0001 Allergan 3143-101-012","30 mg BID Maintenance Day 1 Visit","","70","30_QD Day 1 Maint Form","30 mg BID Maintenance Day 1 Form","","1","ALL0001 Allergan 3143-101-012","Requirements Build","Visit information for post Baseline visit from: A Standard Library"
"1","IMP Administration AM Dose","IMP Administration AM Dose","ST18467","ALL0001 Allergan 3143-101-012","30 mg BID Maintenance Day 1 Visit","","70","30_QD Day 1 Maint Form","30 mg BID Maintenance Day 1 Form","","1","ALL0001 Allergan 3143-101-012","Requirements Build","OSL updated 6/14/19:  IMP Dispensation from Otsuka (CI) Standard Library"
"1","Visit Information","Visit information for Maintenance Visits","ST18446","ALL0001 Allergan 3143-101-012","20 mg QD Maintenance Day 2 Visit","","47","31_QD Day 2 Maint Form","20 mg QD Maintenance Day 2 Form","","1","ALL0001 Allergan 3143-101-012","Requirements Build","Visit information for post Baseline visit from: A Standard Library"
"2","IMP Administration AM Dose","IMP Administration AM Dose","ST18467","ALL0001 Allergan 3143-101-012","20 mg QD Maintenance Day 2 Visit","","47","31_QD Day 2 Maint Form","20 mg QD Maintenance Day 2 Form","","1","ALL0001 Allergan 3143-101-012","Requirements Build","OSL updated 6/14/19:  IMP Dispensation from Otsuka (CI) Standard Library"
"1","Visit Information","Visit information for Maintenance Visits","ST18446","ALL0001 Allergan 3143-101-012","20 mg BID Maintenance Day 2 Visit","","59","31_QD Day 2 Maint Form","20 mg BID Maintenance Day 2 Form","","1","ALL0001 Allergan 3143-101-012","Requirements Build","Visit information for post Baseline visit from: A Standard Library"
"2","IMP Administration AM Dose","IMP Administration AM Dose","ST18467","ALL0001 Allergan 3143-101-012","20 mg BID Maintenance Day 2 Visit","","59","31_QD Day 2 Maint Form","20 mg BID Maintenance Day 2 Form","","1","ALL0001 Allergan 3143-101-012","Requirements Build","OSL updated 6/14/19:  IMP Dispensation from Otsuka (CI) Standard Library"
"1","Visit Information","Visit information for Maintenance Visits","ST18446","ALL0001 Allergan 3143-101-012","30 mg BID Maintenance Day 2 Visit","","71","31_QD Day 2 Maint Form","30 mg BID Maintenance Day 2 Form","","1","ALL0001 Allergan 3143-101-012","Requirements Build","Visit information for post Baseline visit from: A Standard Library"
"2","IMP Administration AM Dose","IMP Administration AM Dose","ST18467","ALL0001 Allergan 3143-101-012","30 mg BID Maintenance Day 2 Visit","","71","31_QD Day 2 Maint Form","30 mg BID Maintenance Day 2 Form","","1","ALL0001 Allergan 3143-101-012","Requirements Build","OSL updated 6/14/19:  IMP Dispensation from Otsuka (CI) Standard Library"
"1","Visit Information","Visit information for Maintenance Visits","ST18446",,,,,,,,,"ALL0001 Allergan 3143-101-012","Requirements Build","Visit information for post Baseline visit from: A Standard Library"
"2","IMP Administration AM Dose","IMP Administration AM Dose","ST18467",,,,,,,,,"ALL0001 Allergan 3143-101-012","Requirements Build","OSL updated 6/14/19:  IMP Dispensation from Otsuka (CI) Standard Library"
"1","Visit Information","Visit information for Maintenance Visits","ST18446","ALL0001 Allergan 3143-101-012","20 mg QD Maintenance Day 3 Visit","","48","32_QD Day 3 Maint Form","20 mg QD Maintenance Day 3 Form","","1","ALL0001 Allergan 3143-101-012","Requirements Build","Visit information for post Baseline visit from: A Standard Library"
"2","IMP Administration AM Dose","IMP Administration AM Dose","ST18467","ALL0001 Allergan 3143-101-012","20 mg QD Maintenance Day 3 Visit","","48","32_QD Day 3 Maint Form","20 mg QD Maintenance Day 3 Form","","1","ALL0001 Allergan 3143-101-012","Requirements Build","OSL updated 6/14/19:  IMP Dispensation from Otsuka (CI) Standard Library"
"1","Visit Information","Visit information for Maintenance Visits","ST18446","ALL0001 Allergan 3143-101-012","20 mg BID Maintenance Day 3 Visit","","60","32_QD Day 3 Maint Form","20 mg BID Maintenance Day 3 Form","","1","ALL0001 Allergan 3143-101-012","Requirements Build","Visit information for post Baseline visit from: A Standard Library"
"2","IMP Administration AM Dose","IMP Administration AM Dose","ST18467","ALL0001 Allergan 3143-101-012","20 mg BID Maintenance Day 3 Visit","","60","32_QD Day 3 Maint Form","20 mg BID Maintenance Day 3 Form","","1","ALL0001 Allergan 3143-101-012","Requirements Build","OSL updated 6/14/19:  IMP Dispensation from Otsuka (CI) Standard Library"
"1","Visit Information","Visit information for Maintenance Visits","ST18446","ALL0001 Allergan 3143-101-012","30 mg BID Maintenance Day 3 Visit","","72","32_QD Day 3 Maint Form","30 mg BID Maintenance Day 3 Form","","1","ALL0001 Allergan 3143-101-012","Requirements Build","Visit information for post Baseline visit from: A Standard Library"
"2","IMP Administration AM Dose","IMP Administration AM Dose","ST18467","ALL0001 Allergan 3143-101-012","30 mg BID Maintenance Day 3 Visit","","72","32_QD Day 3 Maint Form","30 mg BID Maintenance Day 3 Form","","1","ALL0001 Allergan 3143-101-012","Requirements Build","OSL updated 6/14/19:  IMP Dispensation from Otsuka (CI) Standard Library"
"1","Visit Information","Visit information for Maintenance Visits","ST18446","ALL0001 Allergan 3143-101-012","20 mg QD Maintenance Day 4 Visit","","49","33_QD Day 4 Maint Form","20 mg QD Maintenance Day 4 Form","","1","ALL0001 Allergan 3143-101-012","Requirements Build","Visit information for post Baseline visit from: A Standard Library"
"2","IMP Administration AM Dose","IMP Administration AM Dose","ST18467","ALL0001 Allergan 3143-101-012","20 mg QD Maintenance Day 4 Visit","","49","33_QD Day 4 Maint Form","20 mg QD Maintenance Day 4 Form","","1","ALL0001 Allergan 3143-101-012","Requirements Build","OSL updated 6/14/19:  IMP Dispensation from Otsuka (CI) Standard Library"
"1","Visit Information","Visit information for Maintenance Visits","ST18446","ALL0001 Allergan 3143-101-012","20 mg BID Maintenance Day 4 Visit","","61","33_QD Day 4 Maint Form","20 mg BID Maintenance Day 4 Form","","1","ALL0001 Allergan 3143-101-012","Requirements Build","Visit information for post Baseline visit from: A Standard Library"
"2","IMP Administration AM Dose","IMP Administration AM Dose","ST18467","ALL0001 Allergan 3143-101-012","20 mg BID Maintenance Day 4 Visit","","61","33_QD Day 4 Maint Form","20 mg BID Maintenance Day 4 Form","","1","ALL0001 Allergan 3143-101-012","Requirements Build","OSL updated 6/14/19:  IMP Dispensation from Otsuka (CI) Standard Library"
"1","Visit Information","Visit information for Maintenance Visits","ST18446","ALL0001 Allergan 3143-101-012","30 mg BID Maintenance Day 4 Visit","","73","33_QD Day 4 Maint Form","30 mg BID Maintenance Day 4 Form","","1","ALL0001 Allergan 3143-101-012","Requirements Build","Visit information for post Baseline visit from: A Standard Library"
"2","IMP Administration AM Dose","IMP Administration AM Dose","ST18467","ALL0001 Allergan 3143-101-012","30 mg BID Maintenance Day 4 Visit","","73","33_QD Day 4 Maint Form","30 mg BID Maintenance Day 4 Form","","1","ALL0001 Allergan 3143-101-012","Requirements Build","OSL updated 6/14/19:  IMP Dispensation from Otsuka (CI) Standard Library"
"1","Visit Information","Visit information for Maintenance Visits","ST18446","ALL0001 Allergan 3143-101-012","20 mg QD Maintenance Day 5 Visit","","50","34_QD Day 5 Maint Form","20 mg QD Maintenance Day 5 Form","","1","ALL0001 Allergan 3143-101-012","Requirements Build","Visit information for post Baseline visit from: A Standard Library"
"2","IMP Administration AM Dose","IMP Administration AM Dose","ST18467","ALL0001 Allergan 3143-101-012","20 mg QD Maintenance Day 5 Visit","","50","34_QD Day 5 Maint Form","20 mg QD Maintenance Day 5 Form","","1","ALL0001 Allergan 3143-101-012","Requirements Build","OSL updated 6/14/19:  IMP Dispensation from Otsuka (CI) Standard Library"
"3","Discharge Form","Discharge Form post Maintenance Period","ST18556","ALL0001 Allergan 3143-101-012","20 mg QD Maintenance Day 5 Visit","","50","34_QD Day 5 Maint Form","20 mg QD Maintenance Day 5 Form","","1","ALL0001 Allergan 3143-101-012","Requirements Build",""
"1","Visit Information","Visit information for Maintenance Visits","ST18446","ALL0001 Allergan 3143-101-012","20 mg BID Maintenance Day 5 Visit","","62","34_QD Day 5 Maint Form","20 mg BID Maintenance Day 5 Form","","1","ALL0001 Allergan 3143-101-012","Requirements Build","Visit information for post Baseline visit from: A Standard Library"
"2","IMP Administration AM Dose","IMP Administration AM Dose","ST18467","ALL0001 Allergan 3143-101-012","20 mg BID Maintenance Day 5 Visit","","62","34_QD Day 5 Maint Form","20 mg BID Maintenance Day 5 Form","","1","ALL0001 Allergan 3143-101-012","Requirements Build","OSL updated 6/14/19:  IMP Dispensation from Otsuka (CI) Standard Library"
"3","Discharge Form","Discharge Form post Maintenance Period","ST18556","ALL0001 Allergan 3143-101-012","20 mg BID Maintenance Day 5 Visit","","62","34_QD Day 5 Maint Form","20 mg BID Maintenance Day 5 Form","","1","ALL0001 Allergan 3143-101-012","Requirements Build",""
"1","Visit Information","Visit information for Maintenance Visits","ST18446","ALL0001 Allergan 3143-101-012","30 mg BID Maintenance Day 5 Visit","","74","34_QD Day 5 Maint Form","30 mg BID Maintenance Day 5 Form","","1","ALL0001 Allergan 3143-101-012","Requirements Build","Visit information for post Baseline visit from: A Standard Library"
"2","IMP Administration AM Dose","IMP Administration AM Dose","ST18467","ALL0001 Allergan 3143-101-012","30 mg BID Maintenance Day 5 Visit","","74","34_QD Day 5 Maint Form","30 mg BID Maintenance Day 5 Form","","1","ALL0001 Allergan 3143-101-012","Requirements Build","OSL updated 6/14/19:  IMP Dispensation from Otsuka (CI) Standard Library"
"3","Discharge Form","Discharge Form post Maintenance Period","ST18556","ALL0001 Allergan 3143-101-012","30 mg BID Maintenance Day 5 Visit","","74","34_QD Day 5 Maint Form","30 mg BID Maintenance Day 5 Form","","1","ALL0001 Allergan 3143-101-012","Requirements Build",""
"1","Visit Information","Visit information for EOS or ET visit","ST18445","ALL0001 Allergan 3143-101-012","End Of Study or ET Visit","","87","","End Of Study or ET Visit Form","","1","ALL0001 Allergan 3143-101-012","Requirements Build","Visit information for ET visit from: A Standard Library"
"1","Study Completion","Study Completion","ST18175","ALL0001 Allergan 3143-101-012","Study Completion Form","","89","","Study Completion Form","","1","ALL0001 Allergan 3143-101-012","Requirements Build","Study Completion from: A Standard Library, 8July2019."
"2","General Notes","General Notes with child fields for study visits and Unscheduled","ST18189","ALL0001 Allergan 3143-101-012","Study Completion Form","","89","","Study Completion Form","","1","ALL0001 Allergan 3143-101-012","Requirements Build",""
"2","General Notes","General Notes with child fields for EOS","ST18443","ALL0001 Allergan 3143-101-012","End Of Study or ET Visit","","87","","End Of Study or ET Visit Form","","1","ALL0001 Allergan 3143-101-012","Requirements Build",""
"11","Central Laboratory Sample Collection","Central Laboratory Sample Collection at Screening","ST18510","ALL0001 Allergan 3143-101-012","Screening Visit","","1","05_Screening Visit Form","Screening Visit Form","","1","ALL0001 Allergan 3143-101-012","Requirements Build",""
"13","Electroencephalography and Evoked Response Potential (EEG)","EEG at Screening","ST18521","ALL0001 Allergan 3143-101-012","Screening Visit","","1","05_Screening Visit Form","Screening Visit Form","","1","ALL0001 Allergan 3143-101-012","Requirements Build",""
"14","Adverse Event and Conmed Review","Adverse Event and Conmed Review for Screening visit","ST18505","ALL0001 Allergan 3143-101-012","Screening Visit","","1","05_Screening Visit Form","Screening Visit Form","","1","ALL0001 Allergan 3143-101-012","Requirements Build","Adverse Event Review for Screening visit from: A Standard Library"
"15","Eligibility Criteria Review","Eligibility Criteria Review for Screening and Baseline Day -3","ST18459","ALL0001 Allergan 3143-101-012","Screening Visit","","1","05_Screening Visit Form","Screening Visit Form","","1","ALL0001 Allergan 3143-101-012","Requirements Build",""
"10","Central Laboratory Sample Collection","Central Laboratory Sample Collection Baseline Visits","ST18511","ALL0001 Allergan 3143-101-012","Baseline Day -3 Visit","","4","07_Baseline Day -3 Visit Form","Baseline Day -3 Visit Form","","1","ALL0001 Allergan 3143-101-012","Requirements Build",""
"1","Hy's Law Event Form","Hys Law Event Form","ST18602","ALL0001 Allergan 3143-101-012","Add On Forms","","91","","Hys Law Form","","6","ALL0001 Allergan 3143-101-012","Requirements Build",""
