"1","Vineland Adaptive Behavior Scales - Third Edition","VABS-3 Communication","ST21849","AMG0002 Amgen 20180130","Long Term Follow-up Month 6","","2","900_VABS Communication","VABS-3 Communication","","2","AMG0002 Amgen 20180130","Ready for Production","VABS-3 Communication from COG0017 Roche Library 6/10/20"
"1","Vineland Adaptive Behavior Scales - Third Edition","VABS-3 Score Summary","ST21855","AMG0002 Amgen 20180130","Long Term Follow-up Month 6","","2","02_VABS Scoring","VABS-3 Scoring Summary","","10","AMG0002 Amgen 20180130","Ready for Production","VABS-3 Score Summary  from COG0017 Roche Library 6/10/20"
"1","Behavior Rating Inventory of Executive Function, Second Edition","BRIEF-2 Parent Form","ST21857",,,,,,,,,"AMG0002 Amgen 20180130","Ready for Production","BRIEF-2 5-18y Parent Form from COG0010 NovoNordisk P6 6/4/20"
"1","Behavior Rating Inventory of Executive Function - Preschool Version","BRIEF-P","ST21840","AMG0002 Amgen 20180130","Long Term Follow-up Month 6","","2","906_BRIEF P","BRIEF-P","","8","AMG0002 Amgen 20180130","Ready for Production","BRIEF-P from COG0010 NovoNordisk P6 6/4/20"
"1","Behavior Rating Inventory of Executive Function - Adult Version","BRIEF-A Informant","ST21867",,,,,,,,,"AMG0002 Amgen 20180130","Ready for Production","BRIEF-A 18-90 Adult form COG0009 NovoNordisk P5 6/4/20"
"1","Visit Information","Visit information for post enrollment visit","ST21856","AMG0002 Amgen 20180130","Long Term Follow-up Month 6","","2","01_Visit Info Post Enroll","Visit Information","","1","AMG0002 Amgen 20180130","Ready for Production","Visit information for post Baseline visit from: A Standard Library 6/10/20"
"1","Behavior Rating Inventory of Executive Function - Preschool Version","BRIEF-P - Scoring","ST21841","AMG0002 Amgen 20180130","Long Term Follow-up Month 6","","2","04_BRIEF P Scoring","BRIEF-P Scoring Summary","","12","AMG0002 Amgen 20180130","Ready for Production","BRIEF-P - Scoring COG0010 NovoNordisk P6 6/4/20"
"1","Vineland Adaptive Behavior Scales - Third Edition","VABS-3 Daily Living","ST21850","AMG0002 Amgen 20180130","Long Term Follow-up Month 6","","2","901_VABS Daily Living","VABS-3 Daily Living","","3","AMG0002 Amgen 20180130","Ready for Production","VABS-3 Daily Living Skills from COG0017 Roche Library 6/10/20"
"1","Vineland Adaptive Behavior Scales - Third Edition","VABS-3 Social Skills and Relationships","ST21852","AMG0002 Amgen 20180130","Long Term Follow-up Month 6","","2","902_VABS Social Skills","VABS-3 Social Skills and Relationships","","4","AMG0002 Amgen 20180130","Ready for Production","VABS-3 Socialization from COG0017 Roche Library 6/10/20"
"1","Vineland Adaptive Behavior Scales - Third Edition","VABS-3 Physical Activity","ST21851","AMG0002 Amgen 20180130","Long Term Follow-up Month 6","","2","903_VABS Physical Activity","VABS-3 Physical Activity","","5","AMG0002 Amgen 20180130","Ready for Production","VABS-3 Motor Skills from COG0017 Roche Library 6/10/20"
"1","Vineland Adaptive Behavior Scales - Third Edition","VABS-3 Problem Behaviors","ST21853","AMG0002 Amgen 20180130","Long Term Follow-up Month 6","","2","904_VABS Problem Behaviors","VABS-3 Problem Behaviors","","6","AMG0002 Amgen 20180130","Ready for Production","VABS-3 Maladaptive Behavior from COG0017 Roche Library 6/10/20"
"1","Vineland Adaptive Behavior Scales - Third Edition","VABS-3 Communication","ST21849",,,,,"","VABS-3 Communication","","2","AMG0002 Amgen 20180130","Ready for Production","VABS-3 Communication from COG0017 Roche Library 6/10/20"
"1","Behavior Rating Inventory of Executive Function - Preschool Version","BRIEF-P","ST21840",,,,,"","BRIEF-P","","8","AMG0002 Amgen 20180130","Ready for Production","BRIEF-P from COG0010 NovoNordisk P6 6/4/20"
"1","Behavior Rating Inventory of Executive Function, Second Edition","BRIEF-2 Parent Form","ST21857",,,,,"","BRIEF-2","","7","AMG0002 Amgen 20180130","Ready for Production","BRIEF-2 5-18y Parent Form from COG0010 NovoNordisk P6 6/4/20"
"1","Behavior Rating Inventory of Executive Function - Adult Version","BRIEF-A Adult","ST21867",,,,,"","BRIEF-A","","9","AMG0002 Amgen 20180130","Ready for Production","BRIEF-A 18-90 Adult form COG0009 NovoNordisk P5 6/4/20"
"1","Visit Information","Visit information for post enrollment visit","ST21856",,,,,"","Visit Information","","1","AMG0002 Amgen 20180130","Ready for Production","Visit information for post Baseline visit from: A Standard Library 6/10/20"
"1","Behavior Rating Inventory of Executive Function - Preschool Version","BRIEF-P - Scoring","ST21841",,,,,"","BRIEF-P Score Summary","","12","AMG0002 Amgen 20180130","Ready for Production","BRIEF-P - Scoring COG0010 NovoNordisk P6 6/4/20"
"1","Vineland Adaptive Behavior Scales - Third Edition","VABS-3 Score Summary","ST21855",,,,,"","VABS-3 Score Summary","","10","AMG0002 Amgen 20180130","Ready for Production","VABS-3 Score Summary  from COG0017 Roche Library 6/10/20"
"1","Vineland Adaptive Behavior Scales - Third Edition","VABS-3 Daily Living","ST21850",,,,,"","VABS-3 Daily Living","","3","AMG0002 Amgen 20180130","Ready for Production","VABS-3 Daily Living Skills from COG0017 Roche Library 6/10/20"
"","Vineland Adaptive Behavior Scales - Third Edition","VABS-3 Social Skills and Relationships","ST21852",,,,,"","VABS-3 Social Skills and Relationships","","4","AMG0002 Amgen 20180130","Ready for Production","VABS-3 Socialization from COG0017 Roche Library 6/10/20"
"","Vineland Adaptive Behavior Scales - Third Edition","VABS-3 Physical Activity","ST21851",,,,,"","VABS-3 Physical Activity","","5","AMG0002 Amgen 20180130","Ready for Production","VABS-3 Motor Skills from COG0017 Roche Library 6/10/20"
"","Vineland Adaptive Behavior Scales - Third Edition","VABS-3 Problem Behaviors","ST21853",,,,,"","VABS-3 Problem Behaviors","","6","AMG0002 Amgen 20180130","Ready for Production","VABS-3 Maladaptive Behavior from COG0017 Roche Library 6/10/20"
"1","Behavior Rating Inventory of Executive Function, Second Edition","BRIEF-2 Parent Form Scoring","ST21858",,,,,,,,,"AMG0002 Amgen 20180130","Ready for Production","BRIEF2 5-18y Parent Form Scoring COG0010 NovoNordisk P6 6/4/20"
"1","Behavior Rating Inventory of Executive Function - Adult Version","BRIEF-A Informant Scoring","ST21868",,,,,,,,,"AMG0002 Amgen 20180130","Ready for Production","BRIEF-A 18-90 Adult Scoring COG0009 NovoNordisk P5 6/4/20"
"1","Vineland Adaptive Behavior Scales - Third Edition","VABS-3 Communication","ST21849","AMG0002 Amgen 20180130","Enrollment Visit","7/15/20: Removed forms BRIEF-A and BRIEF-A Scoring Summary","1","900_VABS Communication","VABS-3 Communication","","2","AMG0002 Amgen 20180130","Ready for Production","VABS-3 Communication from COG0017 Roche Library 6/10/20"
"1","Behavior Rating Inventory of Executive Function - Preschool Version","BRIEF-P","ST21840","AMG0002 Amgen 20180130","Enrollment Visit","7/15/20: Removed forms BRIEF-A and BRIEF-A Scoring Summary","1","906_BRIEF P","BRIEF-P","","8","AMG0002 Amgen 20180130","Ready for Production","BRIEF-P from COG0010 NovoNordisk P6 6/4/20"
"1","Behavior Rating Inventory of Executive Function, Second Edition","BRIEF-2 Parent Form","ST21857","AMG0002 Amgen 20180130","Enrollment Visit","7/15/20: Removed forms BRIEF-A and BRIEF-A Scoring Summary","1","905_BRIEF 2","BRIEF-2","","7","AMG0002 Amgen 20180130","Ready for Production","BRIEF-2 5-18y Parent Form from COG0010 NovoNordisk P6 6/4/20"
"1","Behavior Rating Inventory of Executive Function - Adult Version","BRIEF-A Informant","ST21867",,,,,,,,,"AMG0002 Amgen 20180130","Ready for Production","BRIEF-A 18-90 Adult form COG0009 NovoNordisk P5 6/4/20"
"1","Visit Information","Visit information for enrollment","ST21865","AMG0002 Amgen 20180130","Enrollment Visit","7/15/20: Removed forms BRIEF-A and BRIEF-A Scoring Summary","1","06_Visit Info Enrollment","Visit Information","","1","AMG0002 Amgen 20180130","Ready for Production","Visit information for Screening visit from: A Standard Library 6/11/20"
"1","Behavior Rating Inventory of Executive Function, Second Edition","BRIEF-2 Parent Form Scoring","ST21858","AMG0002 Amgen 20180130","Enrollment Visit","7/15/20: Removed forms BRIEF-A and BRIEF-A Scoring Summary","1","03_BRIEF 2 Scoring","BRIEF-2 Scoring Summary","","11","AMG0002 Amgen 20180130","Ready for Production","BRIEF2 5-18y Parent Form Scoring COG0010 NovoNordisk P6 6/4/20"
"1","Behavior Rating Inventory of Executive Function - Preschool Version","BRIEF-P - Scoring","ST21841","AMG0002 Amgen 20180130","Enrollment Visit","7/15/20: Removed forms BRIEF-A and BRIEF-A Scoring Summary","1","04_BRIEF P Scoring","BRIEF-P Scoring Summary","","12","AMG0002 Amgen 20180130","Ready for Production","BRIEF-P - Scoring COG0010 NovoNordisk P6 6/4/20"
"1","Behavior Rating Inventory of Executive Function - Adult Version","BRIEF-A Informant Scoring","ST21868",,,,,,,,,"AMG0002 Amgen 20180130","Ready for Production","BRIEF-A 18-90 Adult Scoring COG0009 NovoNordisk P5 6/4/20"
"1","Vineland Adaptive Behavior Scales - Third Edition","VABS-3 Score Summary","ST21855","AMG0002 Amgen 20180130","Enrollment Visit","7/15/20: Removed forms BRIEF-A and BRIEF-A Scoring Summary","1","02_VABS Scoring","VABS-3 Scoring Summary","","10","AMG0002 Amgen 20180130","Ready for Production","VABS-3 Score Summary  from COG0017 Roche Library 6/10/20"
"1","Vineland Adaptive Behavior Scales - Third Edition","VABS-3 Daily Living","ST21850","AMG0002 Amgen 20180130","Enrollment Visit","7/15/20: Removed forms BRIEF-A and BRIEF-A Scoring Summary","1","901_VABS Daily Living","VABS-3 Daily Living","","3","AMG0002 Amgen 20180130","Ready for Production","VABS-3 Daily Living Skills from COG0017 Roche Library 6/10/20"
"1","Vineland Adaptive Behavior Scales - Third Edition","VABS-3 Social Skills and Relationships","ST21852","AMG0002 Amgen 20180130","Enrollment Visit","7/15/20: Removed forms BRIEF-A and BRIEF-A Scoring Summary","1","902_VABS Social Skills","VABS-3 Social Skills and Relationships","","4","AMG0002 Amgen 20180130","Ready for Production","VABS-3 Socialization from COG0017 Roche Library 6/10/20"
"1","Vineland Adaptive Behavior Scales - Third Edition","VABS-3 Physical Activity","ST21851","AMG0002 Amgen 20180130","Enrollment Visit","7/15/20: Removed forms BRIEF-A and BRIEF-A Scoring Summary","1","903_VABS Physical Activity","VABS-3 Physical Activity","","5","AMG0002 Amgen 20180130","Ready for Production","VABS-3 Motor Skills from COG0017 Roche Library 6/10/20"
"1","Vineland Adaptive Behavior Scales - Third Edition","VABS-3 Problem Behaviors","ST21853","AMG0002 Amgen 20180130","Enrollment Visit","7/15/20: Removed forms BRIEF-A and BRIEF-A Scoring Summary","1","904_VABS Problem Behaviors","VABS-3 Problem Behaviors","","6","AMG0002 Amgen 20180130","Ready for Production","VABS-3 Maladaptive Behavior from COG0017 Roche Library 6/10/20"
"1","Vineland Adaptive Behavior Scales - Third Edition","VABS-3 Communication","ST21849","AMG0002 Amgen 20180130","Long Term Follow-up Month 42","","8","900_VABS Communication","VABS-3 Communication","","2","AMG0002 Amgen 20180130","Ready for Production","VABS-3 Communication from COG0017 Roche Library 6/10/20"
"1","Behavior Rating Inventory of Executive Function - Preschool Version","BRIEF-P","ST21840","AMG0002 Amgen 20180130","Long Term Follow-up Month 42","","8","906_BRIEF P","BRIEF-P","","8","AMG0002 Amgen 20180130","Ready for Production","BRIEF-P from COG0010 NovoNordisk P6 6/4/20"
"1","Behavior Rating Inventory of Executive Function, Second Edition","BRIEF-2 Parent Form","ST21857",,,,,,,,,"AMG0002 Amgen 20180130","Ready for Production","BRIEF-2 5-18y Parent Form from COG0010 NovoNordisk P6 6/4/20"
"1","Behavior Rating Inventory of Executive Function - Adult Version","BRIEF-A Informant","ST21867",,,,,,,,,"AMG0002 Amgen 20180130","Ready for Production","BRIEF-A 18-90 Adult form COG0009 NovoNordisk P5 6/4/20"
"1","Visit Information","Visit information for post enrollment visit","ST21856","AMG0002 Amgen 20180130","Long Term Follow-up Month 42","","8","01_Visit Info Post Enroll","Visit Information","","1","AMG0002 Amgen 20180130","Ready for Production","Visit information for post Baseline visit from: A Standard Library 6/10/20"
"1","Behavior Rating Inventory of Executive Function, Second Edition","BRIEF-2 Parent Form Scoring","ST21858",,,,,,,,,"AMG0002 Amgen 20180130","Ready for Production","BRIEF2 5-18y Parent Form Scoring COG0010 NovoNordisk P6 6/4/20"
"1","Behavior Rating Inventory of Executive Function - Preschool Version","BRIEF-P - Scoring","ST21841","AMG0002 Amgen 20180130","Long Term Follow-up Month 42","","8","04_BRIEF P Scoring","BRIEF-P Scoring Summary","","12","AMG0002 Amgen 20180130","Ready for Production","BRIEF-P - Scoring COG0010 NovoNordisk P6 6/4/20"
"1","Behavior Rating Inventory of Executive Function - Adult Version","BRIEF-A Informant Scoring","ST21868",,,,,,,,,"AMG0002 Amgen 20180130","Ready for Production","BRIEF-A 18-90 Adult Scoring COG0009 NovoNordisk P5 6/4/20"
"1","Vineland Adaptive Behavior Scales - Third Edition","VABS-3 Score Summary","ST21855","AMG0002 Amgen 20180130","Long Term Follow-up Month 42","","8","02_VABS Scoring","VABS-3 Scoring Summary","","10","AMG0002 Amgen 20180130","Ready for Production","VABS-3 Score Summary  from COG0017 Roche Library 6/10/20"
"1","Vineland Adaptive Behavior Scales - Third Edition","VABS-3 Daily Living","ST21850","AMG0002 Amgen 20180130","Long Term Follow-up Month 42","","8","901_VABS Daily Living","VABS-3 Daily Living","","3","AMG0002 Amgen 20180130","Ready for Production","VABS-3 Daily Living Skills from COG0017 Roche Library 6/10/20"
"1","Vineland Adaptive Behavior Scales - Third Edition","VABS-3 Social Skills and Relationships","ST21852","AMG0002 Amgen 20180130","Long Term Follow-up Month 42","","8","902_VABS Social Skills","VABS-3 Social Skills and Relationships","","4","AMG0002 Amgen 20180130","Ready for Production","VABS-3 Socialization from COG0017 Roche Library 6/10/20"
"1","Vineland Adaptive Behavior Scales - Third Edition","VABS-3 Physical Activity","ST21851","AMG0002 Amgen 20180130","Long Term Follow-up Month 42","","8","903_VABS Physical Activity","VABS-3 Physical Activity","","5","AMG0002 Amgen 20180130","Ready for Production","VABS-3 Motor Skills from COG0017 Roche Library 6/10/20"
"1","Vineland Adaptive Behavior Scales - Third Edition","VABS-3 Problem Behaviors","ST21853","AMG0002 Amgen 20180130","Long Term Follow-up Month 42","","8","904_VABS Problem Behaviors","VABS-3 Problem Behaviors","","6","AMG0002 Amgen 20180130","Ready for Production","VABS-3 Maladaptive Behavior from COG0017 Roche Library 6/10/20"
"1","Vineland Adaptive Behavior Scales - Third Edition","VABS-3 Communication","ST21849","AMG0002 Amgen 20180130","Long Term Follow-up Month 36","","7","900_VABS Communication","VABS-3 Communication","","2","AMG0002 Amgen 20180130","Ready for Production","VABS-3 Communication from COG0017 Roche Library 6/10/20"
"1","Behavior Rating Inventory of Executive Function - Preschool Version","BRIEF-P","ST21840","AMG0002 Amgen 20180130","Long Term Follow-up Month 36","","7","906_BRIEF P","BRIEF-P","","8","AMG0002 Amgen 20180130","Ready for Production","BRIEF-P from COG0010 NovoNordisk P6 6/4/20"
"1","Behavior Rating Inventory of Executive Function, Second Edition","BRIEF-2 Parent Form","ST21857","AMG0002 Amgen 20180130","Long Term Follow-up Month 36","","7","905_BRIEF 2","BRIEF-2","","7","AMG0002 Amgen 20180130","Ready for Production","BRIEF-2 5-18y Parent Form from COG0010 NovoNordisk P6 6/4/20"
"1","Behavior Rating Inventory of Executive Function - Adult Version","BRIEF-A Informant","ST21867","AMG0002 Amgen 20180130","Long Term Follow-up Month 36","","7","907_BRIEF A","BRIEF-A","","9","AMG0002 Amgen 20180130","Ready for Production","BRIEF-A 18-90 Adult form COG0009 NovoNordisk P5 6/4/20"
"1","Visit Information","Visit information for post enrollment visit","ST21856","AMG0002 Amgen 20180130","Long Term Follow-up Month 36","","7","01_Visit Info Post Enroll","Visit Information","","1","AMG0002 Amgen 20180130","Ready for Production","Visit information for post Baseline visit from: A Standard Library 6/10/20"
"1","Behavior Rating Inventory of Executive Function, Second Edition","BRIEF-2 Parent Form Scoring","ST21858","AMG0002 Amgen 20180130","Long Term Follow-up Month 36","","7","03_BRIEF 2 Scoring","BRIEF-2 Scoring Summary","","11","AMG0002 Amgen 20180130","Ready for Production","BRIEF2 5-18y Parent Form Scoring COG0010 NovoNordisk P6 6/4/20"
"1","Behavior Rating Inventory of Executive Function - Preschool Version","BRIEF-P - Scoring","ST21841","AMG0002 Amgen 20180130","Long Term Follow-up Month 36","","7","04_BRIEF P Scoring","BRIEF-P Scoring Summary","","12","AMG0002 Amgen 20180130","Ready for Production","BRIEF-P - Scoring COG0010 NovoNordisk P6 6/4/20"
"1","Behavior Rating Inventory of Executive Function - Adult Version","BRIEF-A Informant Scoring","ST21868","AMG0002 Amgen 20180130","Long Term Follow-up Month 36","","7","05_BRIEF A Scoring","BRIEF-A Scoring Summary","","13","AMG0002 Amgen 20180130","Ready for Production","BRIEF-A 18-90 Adult Scoring COG0009 NovoNordisk P5 6/4/20"
"1","Vineland Adaptive Behavior Scales - Third Edition","VABS-3 Score Summary","ST21855","AMG0002 Amgen 20180130","Long Term Follow-up Month 36","","7","02_VABS Scoring","VABS-3 Scoring Summary","","10","AMG0002 Amgen 20180130","Ready for Production","VABS-3 Score Summary  from COG0017 Roche Library 6/10/20"
"1","Vineland Adaptive Behavior Scales - Third Edition","VABS-3 Daily Living","ST21850","AMG0002 Amgen 20180130","Long Term Follow-up Month 36","","7","901_VABS Daily Living","VABS-3 Daily Living","","3","AMG0002 Amgen 20180130","Ready for Production","VABS-3 Daily Living Skills from COG0017 Roche Library 6/10/20"
"1","Vineland Adaptive Behavior Scales - Third Edition","VABS-3 Social Skills and Relationships","ST21852","AMG0002 Amgen 20180130","Long Term Follow-up Month 36","","7","902_VABS Social Skills","VABS-3 Social Skills and Relationships","","4","AMG0002 Amgen 20180130","Ready for Production","VABS-3 Socialization from COG0017 Roche Library 6/10/20"
"1","Vineland Adaptive Behavior Scales - Third Edition","VABS-3 Physical Activity","ST21851","AMG0002 Amgen 20180130","Long Term Follow-up Month 36","","7","903_VABS Physical Activity","VABS-3 Physical Activity","","5","AMG0002 Amgen 20180130","Ready for Production","VABS-3 Motor Skills from COG0017 Roche Library 6/10/20"
"1","Vineland Adaptive Behavior Scales - Third Edition","VABS-3 Problem Behaviors","ST21853","AMG0002 Amgen 20180130","Long Term Follow-up Month 36","","7","904_VABS Problem Behaviors","VABS-3 Problem Behaviors","","6","AMG0002 Amgen 20180130","Ready for Production","VABS-3 Maladaptive Behavior from COG0017 Roche Library 6/10/20"
"1","Vineland Adaptive Behavior Scales - Third Edition","VABS-3 Communication","ST21849","AMG0002 Amgen 20180130","Long Term Follow-up Month 30","","6","900_VABS Communication","VABS-3 Communication","","2","AMG0002 Amgen 20180130","Ready for Production","VABS-3 Communication from COG0017 Roche Library 6/10/20"
"1","Behavior Rating Inventory of Executive Function - Preschool Version","BRIEF-P","ST21840","AMG0002 Amgen 20180130","Long Term Follow-up Month 30","","6","906_BRIEF P","BRIEF-P","","8","AMG0002 Amgen 20180130","Ready for Production","BRIEF-P from COG0010 NovoNordisk P6 6/4/20"
"1","Behavior Rating Inventory of Executive Function, Second Edition","BRIEF-2 Parent Form","ST21857",,,,,,,,,"AMG0002 Amgen 20180130","Ready for Production","BRIEF-2 5-18y Parent Form from COG0010 NovoNordisk P6 6/4/20"
"1","Behavior Rating Inventory of Executive Function - Adult Version","BRIEF-A Informant","ST21867",,,,,,,,,"AMG0002 Amgen 20180130","Ready for Production","BRIEF-A 18-90 Adult form COG0009 NovoNordisk P5 6/4/20"
"1","Visit Information","Visit information for post enrollment visit","ST21856","AMG0002 Amgen 20180130","Long Term Follow-up Month 30","","6","01_Visit Info Post Enroll","Visit Information","","1","AMG0002 Amgen 20180130","Ready for Production","Visit information for post Baseline visit from: A Standard Library 6/10/20"
"1","Behavior Rating Inventory of Executive Function, Second Edition","BRIEF-2 Parent Form Scoring","ST21858",,,,,,,,,"AMG0002 Amgen 20180130","Ready for Production","BRIEF2 5-18y Parent Form Scoring COG0010 NovoNordisk P6 6/4/20"
"1","Behavior Rating Inventory of Executive Function - Preschool Version","BRIEF-P - Scoring","ST21841","AMG0002 Amgen 20180130","Long Term Follow-up Month 30","","6","04_BRIEF P Scoring","BRIEF-P Scoring Summary","","12","AMG0002 Amgen 20180130","Ready for Production","BRIEF-P - Scoring COG0010 NovoNordisk P6 6/4/20"
"1","Behavior Rating Inventory of Executive Function - Adult Version","BRIEF-A Informant Scoring","ST21868",,,,,,,,,"AMG0002 Amgen 20180130","Ready for Production","BRIEF-A 18-90 Adult Scoring COG0009 NovoNordisk P5 6/4/20"
"1","Vineland Adaptive Behavior Scales - Third Edition","VABS-3 Score Summary","ST21855","AMG0002 Amgen 20180130","Long Term Follow-up Month 30","","6","02_VABS Scoring","VABS-3 Scoring Summary","","10","AMG0002 Amgen 20180130","Ready for Production","VABS-3 Score Summary  from COG0017 Roche Library 6/10/20"
"1","Vineland Adaptive Behavior Scales - Third Edition","VABS-3 Daily Living","ST21850","AMG0002 Amgen 20180130","Long Term Follow-up Month 30","","6","901_VABS Daily Living","VABS-3 Daily Living","","3","AMG0002 Amgen 20180130","Ready for Production","VABS-3 Daily Living Skills from COG0017 Roche Library 6/10/20"
"1","Vineland Adaptive Behavior Scales - Third Edition","VABS-3 Social Skills and Relationships","ST21852","AMG0002 Amgen 20180130","Long Term Follow-up Month 30","","6","902_VABS Social Skills","VABS-3 Social Skills and Relationships","","4","AMG0002 Amgen 20180130","Ready for Production","VABS-3 Socialization from COG0017 Roche Library 6/10/20"
"1","Vineland Adaptive Behavior Scales - Third Edition","VABS-3 Physical Activity","ST21851","AMG0002 Amgen 20180130","Long Term Follow-up Month 30","","6","903_VABS Physical Activity","VABS-3 Physical Activity","","5","AMG0002 Amgen 20180130","Ready for Production","VABS-3 Motor Skills from COG0017 Roche Library 6/10/20"
"1","Vineland Adaptive Behavior Scales - Third Edition","VABS-3 Problem Behaviors","ST21853","AMG0002 Amgen 20180130","Long Term Follow-up Month 30","","6","904_VABS Problem Behaviors","VABS-3 Problem Behaviors","","6","AMG0002 Amgen 20180130","Ready for Production","VABS-3 Maladaptive Behavior from COG0017 Roche Library 6/10/20"
"1","Vineland Adaptive Behavior Scales - Third Edition","VABS-3 Communication","ST21849","AMG0002 Amgen 20180130","Long Term Follow-up Month 24","","5","900_VABS Communication","VABS-3 Communication","","2","AMG0002 Amgen 20180130","Ready for Production","VABS-3 Communication from COG0017 Roche Library 6/10/20"
"1","Behavior Rating Inventory of Executive Function - Preschool Version","BRIEF-P","ST21840","AMG0002 Amgen 20180130","Long Term Follow-up Month 24","","5","906_BRIEF P","BRIEF-P","","8","AMG0002 Amgen 20180130","Ready for Production","BRIEF-P from COG0010 NovoNordisk P6 6/4/20"
"1","Behavior Rating Inventory of Executive Function, Second Edition","BRIEF-2 Parent Form","ST21857","AMG0002 Amgen 20180130","Long Term Follow-up Month 24","","5","905_BRIEF 2","BRIEF-2","","7","AMG0002 Amgen 20180130","Ready for Production","BRIEF-2 5-18y Parent Form from COG0010 NovoNordisk P6 6/4/20"
"1","Behavior Rating Inventory of Executive Function - Adult Version","BRIEF-A Informant","ST21867","AMG0002 Amgen 20180130","Long Term Follow-up Month 24","","5","907_BRIEF A","BRIEF-A","","9","AMG0002 Amgen 20180130","Ready for Production","BRIEF-A 18-90 Adult form COG0009 NovoNordisk P5 6/4/20"
"1","Visit Information","Visit information for post enrollment visit","ST21856","AMG0002 Amgen 20180130","Long Term Follow-up Month 24","","5","01_Visit Info Post Enroll","Visit Information","","1","AMG0002 Amgen 20180130","Ready for Production","Visit information for post Baseline visit from: A Standard Library 6/10/20"
"1","Behavior Rating Inventory of Executive Function, Second Edition","BRIEF-2 Parent Form Scoring","ST21858","AMG0002 Amgen 20180130","Long Term Follow-up Month 24","","5","03_BRIEF 2 Scoring","BRIEF-2 Scoring Summary","","11","AMG0002 Amgen 20180130","Ready for Production","BRIEF2 5-18y Parent Form Scoring COG0010 NovoNordisk P6 6/4/20"
"1","Behavior Rating Inventory of Executive Function - Preschool Version","BRIEF-P - Scoring","ST21841","AMG0002 Amgen 20180130","Long Term Follow-up Month 24","","5","04_BRIEF P Scoring","BRIEF-P Scoring Summary","","12","AMG0002 Amgen 20180130","Ready for Production","BRIEF-P - Scoring COG0010 NovoNordisk P6 6/4/20"
"1","Behavior Rating Inventory of Executive Function - Adult Version","BRIEF-A Informant Scoring","ST21868","AMG0002 Amgen 20180130","Long Term Follow-up Month 24","","5","05_BRIEF A Scoring","BRIEF-A Scoring Summary","","13","AMG0002 Amgen 20180130","Ready for Production","BRIEF-A 18-90 Adult Scoring COG0009 NovoNordisk P5 6/4/20"
"1","Vineland Adaptive Behavior Scales - Third Edition","VABS-3 Score Summary","ST21855","AMG0002 Amgen 20180130","Long Term Follow-up Month 24","","5","02_VABS Scoring","VABS-3 Scoring Summary","","10","AMG0002 Amgen 20180130","Ready for Production","VABS-3 Score Summary  from COG0017 Roche Library 6/10/20"
"1","Vineland Adaptive Behavior Scales - Third Edition","VABS-3 Daily Living","ST21850","AMG0002 Amgen 20180130","Long Term Follow-up Month 24","","5","901_VABS Daily Living","VABS-3 Daily Living","","3","AMG0002 Amgen 20180130","Ready for Production","VABS-3 Daily Living Skills from COG0017 Roche Library 6/10/20"
"1","Vineland Adaptive Behavior Scales - Third Edition","VABS-3 Social Skills and Relationships","ST21852","AMG0002 Amgen 20180130","Long Term Follow-up Month 24","","5","902_VABS Social Skills","VABS-3 Social Skills and Relationships","","4","AMG0002 Amgen 20180130","Ready for Production","VABS-3 Socialization from COG0017 Roche Library 6/10/20"
"1","Vineland Adaptive Behavior Scales - Third Edition","VABS-3 Physical Activity","ST21851","AMG0002 Amgen 20180130","Long Term Follow-up Month 24","","5","903_VABS Physical Activity","VABS-3 Physical Activity","","5","AMG0002 Amgen 20180130","Ready for Production","VABS-3 Motor Skills from COG0017 Roche Library 6/10/20"
"1","Vineland Adaptive Behavior Scales - Third Edition","VABS-3 Problem Behaviors","ST21853","AMG0002 Amgen 20180130","Long Term Follow-up Month 24","","5","904_VABS Problem Behaviors","VABS-3 Problem Behaviors","","6","AMG0002 Amgen 20180130","Ready for Production","VABS-3 Maladaptive Behavior from COG0017 Roche Library 6/10/20"
"1","Vineland Adaptive Behavior Scales - Third Edition","VABS-3 Communication","ST21849","AMG0002 Amgen 20180130","Long Term Follow-up Month 18","","4","900_VABS Communication","VABS-3 Communication","","2","AMG0002 Amgen 20180130","Ready for Production","VABS-3 Communication from COG0017 Roche Library 6/10/20"
"1","Behavior Rating Inventory of Executive Function - Preschool Version","BRIEF-P","ST21840","AMG0002 Amgen 20180130","Long Term Follow-up Month 18","","4","906_BRIEF P","BRIEF-P","","8","AMG0002 Amgen 20180130","Ready for Production","BRIEF-P from COG0010 NovoNordisk P6 6/4/20"
"1","Behavior Rating Inventory of Executive Function, Second Edition","BRIEF-2 Parent Form","ST21857",,,,,,,,,"AMG0002 Amgen 20180130","Ready for Production","BRIEF-2 5-18y Parent Form from COG0010 NovoNordisk P6 6/4/20"
"1","Behavior Rating Inventory of Executive Function - Adult Version","BRIEF-A Informant","ST21867",,,,,,,,,"AMG0002 Amgen 20180130","Ready for Production","BRIEF-A 18-90 Adult form COG0009 NovoNordisk P5 6/4/20"
"1","Visit Information","Visit information for post enrollment visit","ST21856","AMG0002 Amgen 20180130","Long Term Follow-up Month 18","","4","01_Visit Info Post Enroll","Visit Information","","1","AMG0002 Amgen 20180130","Ready for Production","Visit information for post Baseline visit from: A Standard Library 6/10/20"
"1","Behavior Rating Inventory of Executive Function, Second Edition","BRIEF-2 Parent Form Scoring","ST21858",,,,,,,,,"AMG0002 Amgen 20180130","Ready for Production","BRIEF2 5-18y Parent Form Scoring COG0010 NovoNordisk P6 6/4/20"
"1","Behavior Rating Inventory of Executive Function - Preschool Version","BRIEF-P - Scoring","ST21841","AMG0002 Amgen 20180130","Long Term Follow-up Month 18","","4","04_BRIEF P Scoring","BRIEF-P Scoring Summary","","12","AMG0002 Amgen 20180130","Ready for Production","BRIEF-P - Scoring COG0010 NovoNordisk P6 6/4/20"
"1","Behavior Rating Inventory of Executive Function - Adult Version","BRIEF-A Informant Scoring","ST21868",,,,,,,,,"AMG0002 Amgen 20180130","Ready for Production","BRIEF-A 18-90 Adult Scoring COG0009 NovoNordisk P5 6/4/20"
"1","Vineland Adaptive Behavior Scales - Third Edition","VABS-3 Score Summary","ST21855","AMG0002 Amgen 20180130","Long Term Follow-up Month 18","","4","02_VABS Scoring","VABS-3 Scoring Summary","","10","AMG0002 Amgen 20180130","Ready for Production","VABS-3 Score Summary  from COG0017 Roche Library 6/10/20"
"1","Vineland Adaptive Behavior Scales - Third Edition","VABS-3 Daily Living","ST21850","AMG0002 Amgen 20180130","Long Term Follow-up Month 18","","4","901_VABS Daily Living","VABS-3 Daily Living","","3","AMG0002 Amgen 20180130","Ready for Production","VABS-3 Daily Living Skills from COG0017 Roche Library 6/10/20"
"1","Vineland Adaptive Behavior Scales - Third Edition","VABS-3 Social Skills and Relationships","ST21852","AMG0002 Amgen 20180130","Long Term Follow-up Month 18","","4","902_VABS Social Skills","VABS-3 Social Skills and Relationships","","4","AMG0002 Amgen 20180130","Ready for Production","VABS-3 Socialization from COG0017 Roche Library 6/10/20"
"1","Vineland Adaptive Behavior Scales - Third Edition","VABS-3 Physical Activity","ST21851","AMG0002 Amgen 20180130","Long Term Follow-up Month 18","","4","903_VABS Physical Activity","VABS-3 Physical Activity","","5","AMG0002 Amgen 20180130","Ready for Production","VABS-3 Motor Skills from COG0017 Roche Library 6/10/20"
"1","Vineland Adaptive Behavior Scales - Third Edition","VABS-3 Problem Behaviors","ST21853","AMG0002 Amgen 20180130","Long Term Follow-up Month 18","","4","904_VABS Problem Behaviors","VABS-3 Problem Behaviors","","6","AMG0002 Amgen 20180130","Ready for Production","VABS-3 Maladaptive Behavior from COG0017 Roche Library 6/10/20"
"1","Vineland Adaptive Behavior Scales - Third Edition","VABS-3 Communication","ST21849","AMG0002 Amgen 20180130","Long Term Follow-up Month 12","","3","900_VABS Communication","VABS-3 Communication","","2","AMG0002 Amgen 20180130","Ready for Production","VABS-3 Communication from COG0017 Roche Library 6/10/20"
"1","Behavior Rating Inventory of Executive Function - Preschool Version","BRIEF-P","ST21840","AMG0002 Amgen 20180130","Long Term Follow-up Month 12","","3","906_BRIEF P","BRIEF-P","","8","AMG0002 Amgen 20180130","Ready for Production","BRIEF-P from COG0010 NovoNordisk P6 6/4/20"
"1","Behavior Rating Inventory of Executive Function, Second Edition","BRIEF-2 Parent Form","ST21857","AMG0002 Amgen 20180130","Long Term Follow-up Month 12","","3","905_BRIEF 2","BRIEF-2","","7","AMG0002 Amgen 20180130","Ready for Production","BRIEF-2 5-18y Parent Form from COG0010 NovoNordisk P6 6/4/20"
"1","Behavior Rating Inventory of Executive Function - Adult Version","BRIEF-A Informant","ST21867","AMG0002 Amgen 20180130","Long Term Follow-up Month 12","","3","907_BRIEF A","BRIEF-A","","9","AMG0002 Amgen 20180130","Ready for Production","BRIEF-A 18-90 Adult form COG0009 NovoNordisk P5 6/4/20"
"1","Visit Information","Visit information for post enrollment visit","ST21856","AMG0002 Amgen 20180130","Long Term Follow-up Month 12","","3","01_Visit Info Post Enroll","Visit Information","","1","AMG0002 Amgen 20180130","Ready for Production","Visit information for post Baseline visit from: A Standard Library 6/10/20"
"1","Behavior Rating Inventory of Executive Function, Second Edition","BRIEF-2 Parent Form Scoring","ST21858","AMG0002 Amgen 20180130","Long Term Follow-up Month 12","","3","03_BRIEF 2 Scoring","BRIEF-2 Scoring Summary","","11","AMG0002 Amgen 20180130","Ready for Production","BRIEF2 5-18y Parent Form Scoring COG0010 NovoNordisk P6 6/4/20"
"1","Behavior Rating Inventory of Executive Function - Preschool Version","BRIEF-P - Scoring","ST21841","AMG0002 Amgen 20180130","Long Term Follow-up Month 12","","3","04_BRIEF P Scoring","BRIEF-P Scoring Summary","","12","AMG0002 Amgen 20180130","Ready for Production","BRIEF-P - Scoring COG0010 NovoNordisk P6 6/4/20"
"1","Behavior Rating Inventory of Executive Function - Adult Version","BRIEF-A Informant Scoring","ST21868","AMG0002 Amgen 20180130","Long Term Follow-up Month 12","","3","05_BRIEF A Scoring","BRIEF-A Scoring Summary","","13","AMG0002 Amgen 20180130","Ready for Production","BRIEF-A 18-90 Adult Scoring COG0009 NovoNordisk P5 6/4/20"
"1","Vineland Adaptive Behavior Scales - Third Edition","VABS-3 Score Summary","ST21855","AMG0002 Amgen 20180130","Long Term Follow-up Month 12","","3","02_VABS Scoring","VABS-3 Scoring Summary","","10","AMG0002 Amgen 20180130","Ready for Production","VABS-3 Score Summary  from COG0017 Roche Library 6/10/20"
"1","Vineland Adaptive Behavior Scales - Third Edition","VABS-3 Daily Living","ST21850","AMG0002 Amgen 20180130","Long Term Follow-up Month 12","","3","901_VABS Daily Living","VABS-3 Daily Living","","3","AMG0002 Amgen 20180130","Ready for Production","VABS-3 Daily Living Skills from COG0017 Roche Library 6/10/20"
"1","Vineland Adaptive Behavior Scales - Third Edition","VABS-3 Social Skills and Relationships","ST21852","AMG0002 Amgen 20180130","Long Term Follow-up Month 12","","3","902_VABS Social Skills","VABS-3 Social Skills and Relationships","","4","AMG0002 Amgen 20180130","Ready for Production","VABS-3 Socialization from COG0017 Roche Library 6/10/20"
"1","Vineland Adaptive Behavior Scales - Third Edition","VABS-3 Physical Activity","ST21851","AMG0002 Amgen 20180130","Long Term Follow-up Month 12","","3","903_VABS Physical Activity","VABS-3 Physical Activity","","5","AMG0002 Amgen 20180130","Ready for Production","VABS-3 Motor Skills from COG0017 Roche Library 6/10/20"
"1","Vineland Adaptive Behavior Scales - Third Edition","VABS-3 Problem Behaviors","ST21853","AMG0002 Amgen 20180130","Long Term Follow-up Month 12","","3","904_VABS Problem Behaviors","VABS-3 Problem Behaviors","","6","AMG0002 Amgen 20180130","Ready for Production","VABS-3 Maladaptive Behavior from COG0017 Roche Library 6/10/20"
"1","Vineland Adaptive Behavior Scales - Third Edition","VABS-3 Communication","ST21849","AMG0002 Amgen 20180130","Long Term Follow-up Month 66","","12","900_VABS Communication","VABS-3 Communication","","2","AMG0002 Amgen 20180130","Ready for Production","VABS-3 Communication from COG0017 Roche Library 6/10/20"
"1","Behavior Rating Inventory of Executive Function - Preschool Version","BRIEF-P","ST21840","AMG0002 Amgen 20180130","Long Term Follow-up Month 66","","12","906_BRIEF P","BRIEF-P","","8","AMG0002 Amgen 20180130","Ready for Production","BRIEF-P from COG0010 NovoNordisk P6 6/4/20"
"1","Behavior Rating Inventory of Executive Function, Second Edition","BRIEF-2 Parent Form","ST21857",,,,,,,,,"AMG0002 Amgen 20180130","Ready for Production","BRIEF-2 5-18y Parent Form from COG0010 NovoNordisk P6 6/4/20"
"1","Behavior Rating Inventory of Executive Function - Adult Version","BRIEF-A Informant","ST21867",,,,,,,,,"AMG0002 Amgen 20180130","Ready for Production","BRIEF-A 18-90 Adult form COG0009 NovoNordisk P5 6/4/20"
"1","Visit Information","Visit information for post enrollment visit","ST21856","AMG0002 Amgen 20180130","Long Term Follow-up Month 66","","12","01_Visit Info Post Enroll","Visit Information","","1","AMG0002 Amgen 20180130","Ready for Production","Visit information for post Baseline visit from: A Standard Library 6/10/20"
"1","Behavior Rating Inventory of Executive Function, Second Edition","BRIEF-2 Parent Form Scoring","ST21858",,,,,,,,,"AMG0002 Amgen 20180130","Ready for Production","BRIEF2 5-18y Parent Form Scoring COG0010 NovoNordisk P6 6/4/20"
"1","Behavior Rating Inventory of Executive Function - Preschool Version","BRIEF-P - Scoring","ST21841","AMG0002 Amgen 20180130","Long Term Follow-up Month 66","","12","04_BRIEF P Scoring","BRIEF-P Scoring Summary","","12","AMG0002 Amgen 20180130","Ready for Production","BRIEF-P - Scoring COG0010 NovoNordisk P6 6/4/20"
"1","Behavior Rating Inventory of Executive Function - Adult Version","BRIEF-A Informant Scoring","ST21868",,,,,,,,,"AMG0002 Amgen 20180130","Ready for Production","BRIEF-A 18-90 Adult Scoring COG0009 NovoNordisk P5 6/4/20"
"1","Vineland Adaptive Behavior Scales - Third Edition","VABS-3 Score Summary","ST21855","AMG0002 Amgen 20180130","Long Term Follow-up Month 66","","12","02_VABS Scoring","VABS-3 Scoring Summary","","10","AMG0002 Amgen 20180130","Ready for Production","VABS-3 Score Summary  from COG0017 Roche Library 6/10/20"
"1","Vineland Adaptive Behavior Scales - Third Edition","VABS-3 Daily Living","ST21850","AMG0002 Amgen 20180130","Long Term Follow-up Month 66","","12","901_VABS Daily Living","VABS-3 Daily Living","","3","AMG0002 Amgen 20180130","Ready for Production","VABS-3 Daily Living Skills from COG0017 Roche Library 6/10/20"
"1","Vineland Adaptive Behavior Scales - Third Edition","VABS-3 Social Skills and Relationships","ST21852","AMG0002 Amgen 20180130","Long Term Follow-up Month 66","","12","902_VABS Social Skills","VABS-3 Social Skills and Relationships","","4","AMG0002 Amgen 20180130","Ready for Production","VABS-3 Socialization from COG0017 Roche Library 6/10/20"
"1","Vineland Adaptive Behavior Scales - Third Edition","VABS-3 Physical Activity","ST21851","AMG0002 Amgen 20180130","Long Term Follow-up Month 66","","12","903_VABS Physical Activity","VABS-3 Physical Activity","","5","AMG0002 Amgen 20180130","Ready for Production","VABS-3 Motor Skills from COG0017 Roche Library 6/10/20"
"1","Vineland Adaptive Behavior Scales - Third Edition","VABS-3 Problem Behaviors","ST21853","AMG0002 Amgen 20180130","Long Term Follow-up Month 66","","12","904_VABS Problem Behaviors","VABS-3 Problem Behaviors","","6","AMG0002 Amgen 20180130","Ready for Production","VABS-3 Maladaptive Behavior from COG0017 Roche Library 6/10/20"
"1","Vineland Adaptive Behavior Scales - Third Edition","VABS-3 Communication","ST21849","AMG0002 Amgen 20180130","Long Term Follow-up Month 60","","11","900_VABS Communication","VABS-3 Communication","","2","AMG0002 Amgen 20180130","Ready for Production","VABS-3 Communication from COG0017 Roche Library 6/10/20"
"1","Behavior Rating Inventory of Executive Function - Preschool Version","BRIEF-P","ST21840","AMG0002 Amgen 20180130","Long Term Follow-up Month 60","","11","906_BRIEF P","BRIEF-P","","8","AMG0002 Amgen 20180130","Ready for Production","BRIEF-P from COG0010 NovoNordisk P6 6/4/20"
"1","Behavior Rating Inventory of Executive Function, Second Edition","BRIEF-2 Parent Form","ST21857","AMG0002 Amgen 20180130","Long Term Follow-up Month 60","","11","905_BRIEF 2","BRIEF-2","","7","AMG0002 Amgen 20180130","Ready for Production","BRIEF-2 5-18y Parent Form from COG0010 NovoNordisk P6 6/4/20"
"1","Behavior Rating Inventory of Executive Function - Adult Version","BRIEF-A Informant","ST21867","AMG0002 Amgen 20180130","Long Term Follow-up Month 60","","11","907_BRIEF A","BRIEF-A","","9","AMG0002 Amgen 20180130","Ready for Production","BRIEF-A 18-90 Adult form COG0009 NovoNordisk P5 6/4/20"
"1","Visit Information","Visit information for post enrollment visit","ST21856","AMG0002 Amgen 20180130","Long Term Follow-up Month 60","","11","01_Visit Info Post Enroll","Visit Information","","1","AMG0002 Amgen 20180130","Ready for Production","Visit information for post Baseline visit from: A Standard Library 6/10/20"
"1","Behavior Rating Inventory of Executive Function, Second Edition","BRIEF-2 Parent Form Scoring","ST21858","AMG0002 Amgen 20180130","Long Term Follow-up Month 60","","11","03_BRIEF 2 Scoring","BRIEF-2 Scoring Summary","","11","AMG0002 Amgen 20180130","Ready for Production","BRIEF2 5-18y Parent Form Scoring COG0010 NovoNordisk P6 6/4/20"
"1","Behavior Rating Inventory of Executive Function - Preschool Version","BRIEF-P - Scoring","ST21841","AMG0002 Amgen 20180130","Long Term Follow-up Month 60","","11","04_BRIEF P Scoring","BRIEF-P Scoring Summary","","12","AMG0002 Amgen 20180130","Ready for Production","BRIEF-P - Scoring COG0010 NovoNordisk P6 6/4/20"
"1","Behavior Rating Inventory of Executive Function - Adult Version","BRIEF-A Informant Scoring","ST21868","AMG0002 Amgen 20180130","Long Term Follow-up Month 60","","11","05_BRIEF A Scoring","BRIEF-A Scoring Summary","","13","AMG0002 Amgen 20180130","Ready for Production","BRIEF-A 18-90 Adult Scoring COG0009 NovoNordisk P5 6/4/20"
"1","Vineland Adaptive Behavior Scales - Third Edition","VABS-3 Score Summary","ST21855","AMG0002 Amgen 20180130","Long Term Follow-up Month 60","","11","02_VABS Scoring","VABS-3 Scoring Summary","","10","AMG0002 Amgen 20180130","Ready for Production","VABS-3 Score Summary  from COG0017 Roche Library 6/10/20"
"1","Vineland Adaptive Behavior Scales - Third Edition","VABS-3 Daily Living","ST21850","AMG0002 Amgen 20180130","Long Term Follow-up Month 60","","11","901_VABS Daily Living","VABS-3 Daily Living","","3","AMG0002 Amgen 20180130","Ready for Production","VABS-3 Daily Living Skills from COG0017 Roche Library 6/10/20"
"1","Vineland Adaptive Behavior Scales - Third Edition","VABS-3 Social Skills and Relationships","ST21852","AMG0002 Amgen 20180130","Long Term Follow-up Month 60","","11","902_VABS Social Skills","VABS-3 Social Skills and Relationships","","4","AMG0002 Amgen 20180130","Ready for Production","VABS-3 Socialization from COG0017 Roche Library 6/10/20"
"1","Vineland Adaptive Behavior Scales - Third Edition","VABS-3 Physical Activity","ST21851","AMG0002 Amgen 20180130","Long Term Follow-up Month 60","","11","903_VABS Physical Activity","VABS-3 Physical Activity","","5","AMG0002 Amgen 20180130","Ready for Production","VABS-3 Motor Skills from COG0017 Roche Library 6/10/20"
"1","Vineland Adaptive Behavior Scales - Third Edition","VABS-3 Problem Behaviors","ST21853","AMG0002 Amgen 20180130","Long Term Follow-up Month 60","","11","904_VABS Problem Behaviors","VABS-3 Problem Behaviors","","6","AMG0002 Amgen 20180130","Ready for Production","VABS-3 Maladaptive Behavior from COG0017 Roche Library 6/10/20"
"1","Vineland Adaptive Behavior Scales - Third Edition","VABS-3 Communication","ST21849","AMG0002 Amgen 20180130","Long Term Follow-up Month 54","","10","900_VABS Communication","VABS-3 Communication","","2","AMG0002 Amgen 20180130","Ready for Production","VABS-3 Communication from COG0017 Roche Library 6/10/20"
"1","Behavior Rating Inventory of Executive Function - Preschool Version","BRIEF-P","ST21840","AMG0002 Amgen 20180130","Long Term Follow-up Month 54","","10","906_BRIEF P","BRIEF-P","","8","AMG0002 Amgen 20180130","Ready for Production","BRIEF-P from COG0010 NovoNordisk P6 6/4/20"
"1","Behavior Rating Inventory of Executive Function, Second Edition","BRIEF-2 Parent Form","ST21857",,,,,,,,,"AMG0002 Amgen 20180130","Ready for Production","BRIEF-2 5-18y Parent Form from COG0010 NovoNordisk P6 6/4/20"
"1","Behavior Rating Inventory of Executive Function - Adult Version","BRIEF-A Informant","ST21867",,,,,,,,,"AMG0002 Amgen 20180130","Ready for Production","BRIEF-A 18-90 Adult form COG0009 NovoNordisk P5 6/4/20"
"1","Visit Information","Visit information for post enrollment visit","ST21856","AMG0002 Amgen 20180130","Long Term Follow-up Month 54","","10","01_Visit Info Post Enroll","Visit Information","","1","AMG0002 Amgen 20180130","Ready for Production","Visit information for post Baseline visit from: A Standard Library 6/10/20"
"1","Behavior Rating Inventory of Executive Function, Second Edition","BRIEF-2 Parent Form Scoring","ST21858",,,,,,,,,"AMG0002 Amgen 20180130","Ready for Production","BRIEF2 5-18y Parent Form Scoring COG0010 NovoNordisk P6 6/4/20"
"1","Behavior Rating Inventory of Executive Function - Preschool Version","BRIEF-P - Scoring","ST21841","AMG0002 Amgen 20180130","Long Term Follow-up Month 54","","10","04_BRIEF P Scoring","BRIEF-P Scoring Summary","","12","AMG0002 Amgen 20180130","Ready for Production","BRIEF-P - Scoring COG0010 NovoNordisk P6 6/4/20"
"1","Behavior Rating Inventory of Executive Function - Adult Version","BRIEF-A Informant Scoring","ST21868",,,,,,,,,"AMG0002 Amgen 20180130","Ready for Production","BRIEF-A 18-90 Adult Scoring COG0009 NovoNordisk P5 6/4/20"
"1","Vineland Adaptive Behavior Scales - Third Edition","VABS-3 Score Summary","ST21855","AMG0002 Amgen 20180130","Long Term Follow-up Month 54","","10","02_VABS Scoring","VABS-3 Scoring Summary","","10","AMG0002 Amgen 20180130","Ready for Production","VABS-3 Score Summary  from COG0017 Roche Library 6/10/20"
"1","Vineland Adaptive Behavior Scales - Third Edition","VABS-3 Daily Living","ST21850","AMG0002 Amgen 20180130","Long Term Follow-up Month 54","","10","901_VABS Daily Living","VABS-3 Daily Living","","3","AMG0002 Amgen 20180130","Ready for Production","VABS-3 Daily Living Skills from COG0017 Roche Library 6/10/20"
"1","Vineland Adaptive Behavior Scales - Third Edition","VABS-3 Social Skills and Relationships","ST21852","AMG0002 Amgen 20180130","Long Term Follow-up Month 54","","10","902_VABS Social Skills","VABS-3 Social Skills and Relationships","","4","AMG0002 Amgen 20180130","Ready for Production","VABS-3 Socialization from COG0017 Roche Library 6/10/20"
"1","Vineland Adaptive Behavior Scales - Third Edition","VABS-3 Physical Activity","ST21851","AMG0002 Amgen 20180130","Long Term Follow-up Month 54","","10","903_VABS Physical Activity","VABS-3 Physical Activity","","5","AMG0002 Amgen 20180130","Ready for Production","VABS-3 Motor Skills from COG0017 Roche Library 6/10/20"
"1","Vineland Adaptive Behavior Scales - Third Edition","VABS-3 Problem Behaviors","ST21853","AMG0002 Amgen 20180130","Long Term Follow-up Month 54","","10","904_VABS Problem Behaviors","VABS-3 Problem Behaviors","","6","AMG0002 Amgen 20180130","Ready for Production","VABS-3 Maladaptive Behavior from COG0017 Roche Library 6/10/20"
"1","Vineland Adaptive Behavior Scales - Third Edition","VABS-3 Communication","ST21849","AMG0002 Amgen 20180130","Long Term Follow-up Month 48","","9","900_VABS Communication","VABS-3 Communication","","2","AMG0002 Amgen 20180130","Ready for Production","VABS-3 Communication from COG0017 Roche Library 6/10/20"
"1","Behavior Rating Inventory of Executive Function - Preschool Version","BRIEF-P","ST21840","AMG0002 Amgen 20180130","Long Term Follow-up Month 48","","9","906_BRIEF P","BRIEF-P","","8","AMG0002 Amgen 20180130","Ready for Production","BRIEF-P from COG0010 NovoNordisk P6 6/4/20"
"1","Behavior Rating Inventory of Executive Function, Second Edition","BRIEF-2 Parent Form","ST21857","AMG0002 Amgen 20180130","Long Term Follow-up Month 48","","9","905_BRIEF 2","BRIEF-2","","7","AMG0002 Amgen 20180130","Ready for Production","BRIEF-2 5-18y Parent Form from COG0010 NovoNordisk P6 6/4/20"
"1","Behavior Rating Inventory of Executive Function - Adult Version","BRIEF-A Informant","ST21867","AMG0002 Amgen 20180130","Long Term Follow-up Month 48","","9","907_BRIEF A","BRIEF-A","","9","AMG0002 Amgen 20180130","Ready for Production","BRIEF-A 18-90 Adult form COG0009 NovoNordisk P5 6/4/20"
"1","Visit Information","Visit information for post enrollment visit","ST21856","AMG0002 Amgen 20180130","Long Term Follow-up Month 48","","9","01_Visit Info Post Enroll","Visit Information","","1","AMG0002 Amgen 20180130","Ready for Production","Visit information for post Baseline visit from: A Standard Library 6/10/20"
"1","Behavior Rating Inventory of Executive Function, Second Edition","BRIEF-2 Parent Form Scoring","ST21858","AMG0002 Amgen 20180130","Long Term Follow-up Month 48","","9","03_BRIEF 2 Scoring","BRIEF-2 Scoring Summary","","11","AMG0002 Amgen 20180130","Ready for Production","BRIEF2 5-18y Parent Form Scoring COG0010 NovoNordisk P6 6/4/20"
"1","Behavior Rating Inventory of Executive Function - Preschool Version","BRIEF-P - Scoring","ST21841","AMG0002 Amgen 20180130","Long Term Follow-up Month 48","","9","04_BRIEF P Scoring","BRIEF-P Scoring Summary","","12","AMG0002 Amgen 20180130","Ready for Production","BRIEF-P - Scoring COG0010 NovoNordisk P6 6/4/20"
"1","Behavior Rating Inventory of Executive Function - Adult Version","BRIEF-A Informant Scoring","ST21868","AMG0002 Amgen 20180130","Long Term Follow-up Month 48","","9","05_BRIEF A Scoring","BRIEF-A Scoring Summary","","13","AMG0002 Amgen 20180130","Ready for Production","BRIEF-A 18-90 Adult Scoring COG0009 NovoNordisk P5 6/4/20"
"1","Vineland Adaptive Behavior Scales - Third Edition","VABS-3 Score Summary","ST21855","AMG0002 Amgen 20180130","Long Term Follow-up Month 48","","9","02_VABS Scoring","VABS-3 Scoring Summary","","10","AMG0002 Amgen 20180130","Ready for Production","VABS-3 Score Summary  from COG0017 Roche Library 6/10/20"
"1","Vineland Adaptive Behavior Scales - Third Edition","VABS-3 Daily Living","ST21850","AMG0002 Amgen 20180130","Long Term Follow-up Month 48","","9","901_VABS Daily Living","VABS-3 Daily Living","","3","AMG0002 Amgen 20180130","Ready for Production","VABS-3 Daily Living Skills from COG0017 Roche Library 6/10/20"
"1","Vineland Adaptive Behavior Scales - Third Edition","VABS-3 Social Skills and Relationships","ST21852","AMG0002 Amgen 20180130","Long Term Follow-up Month 48","","9","902_VABS Social Skills","VABS-3 Social Skills and Relationships","","4","AMG0002 Amgen 20180130","Ready for Production","VABS-3 Socialization from COG0017 Roche Library 6/10/20"
"1","Vineland Adaptive Behavior Scales - Third Edition","VABS-3 Physical Activity","ST21851","AMG0002 Amgen 20180130","Long Term Follow-up Month 48","","9","903_VABS Physical Activity","VABS-3 Physical Activity","","5","AMG0002 Amgen 20180130","Ready for Production","VABS-3 Motor Skills from COG0017 Roche Library 6/10/20"
"1","Vineland Adaptive Behavior Scales - Third Edition","VABS-3 Problem Behaviors","ST21853","AMG0002 Amgen 20180130","Long Term Follow-up Month 48","","9","904_VABS Problem Behaviors","VABS-3 Problem Behaviors","","6","AMG0002 Amgen 20180130","Ready for Production","VABS-3 Maladaptive Behavior from COG0017 Roche Library 6/10/20"
"1","Vineland Adaptive Behavior Scales - Third Edition","VABS-3 Communication","ST21849",,,,,,,,,"AMG0002 Amgen 20180130","Ready for Production","VABS-3 Communication from COG0017 Roche Library 6/10/20"
"1","Behavior Rating Inventory of Executive Function - Preschool Version","BRIEF-P","ST21840",,,,,,,,,"AMG0002 Amgen 20180130","Ready for Production","BRIEF-P from COG0010 NovoNordisk P6 6/4/20"
"1","Behavior Rating Inventory of Executive Function, Second Edition","BRIEF-2 Parent Form","ST21857",,,,,"905_BRIEF 2","BRIEF-2","","7","AMG0002 Amgen 20180130","Ready for Production","BRIEF-2 5-18y Parent Form from COG0010 NovoNordisk P6 6/4/20"
"1","Behavior Rating Inventory of Executive Function - Adult Version","BRIEF-A Informant","ST21867",,,,,"907_BRIEF A","BRIEF-A","","9","AMG0002 Amgen 20180130","Ready for Production","BRIEF-A 18-90 Adult form COG0009 NovoNordisk P5 6/4/20"
"1","Visit Information","Visit information for post enrollment visit","ST21856",,,,,"01_Visit Info Post Enroll","Visit Information","","1","AMG0002 Amgen 20180130","Ready for Production","Visit information for post Baseline visit from: A Standard Library 6/10/20"
"1","Behavior Rating Inventory of Executive Function, Second Edition","BRIEF-2 Parent Form Scoring","ST21858",,,,,"03_BRIEF 2 Scoring","BRIEF-2 Scoring Summary","","11","AMG0002 Amgen 20180130","Ready for Production","BRIEF2 5-18y Parent Form Scoring COG0010 NovoNordisk P6 6/4/20"
"1","Behavior Rating Inventory of Executive Function - Preschool Version","BRIEF-P - Scoring","ST21841",,,,,,,,,"AMG0002 Amgen 20180130","Ready for Production","BRIEF-P - Scoring COG0010 NovoNordisk P6 6/4/20"
"1","Behavior Rating Inventory of Executive Function - Adult Version","BRIEF-A Informant Scoring","ST21868",,,,,"05_BRIEF A Scoring","BRIEF-A Scoring Summary","","13","AMG0002 Amgen 20180130","Ready for Production","BRIEF-A 18-90 Adult Scoring COG0009 NovoNordisk P5 6/4/20"
"1","Vineland Adaptive Behavior Scales - Third Edition","VABS-3 Score Summary","ST21855",,,,,,,,,"AMG0002 Amgen 20180130","Ready for Production","VABS-3 Score Summary  from COG0017 Roche Library 6/10/20"
"1","Vineland Adaptive Behavior Scales - Third Edition","VABS-3 Daily Living","ST21850",,,,,,,,,"AMG0002 Amgen 20180130","Ready for Production","VABS-3 Daily Living Skills from COG0017 Roche Library 6/10/20"
"1","Vineland Adaptive Behavior Scales - Third Edition","VABS-3 Social Skills and Relationships","ST21852",,,,,,,,,"AMG0002 Amgen 20180130","Ready for Production","VABS-3 Socialization from COG0017 Roche Library 6/10/20"
"1","Vineland Adaptive Behavior Scales - Third Edition","VABS-3 Physical Activity","ST21851",,,,,,,,,"AMG0002 Amgen 20180130","Ready for Production","VABS-3 Motor Skills from COG0017 Roche Library 6/10/20"
"1","Vineland Adaptive Behavior Scales - Third Edition","VABS-3 Problem Behaviors","ST21853",,,,,,,,,"AMG0002 Amgen 20180130","Ready for Production","VABS-3 Maladaptive Behavior from COG0017 Roche Library 6/10/20"
"1","Behavior Rating Inventory of Executive Function, Second Edition","BRIEF-2 Parent Form","ST21857",,,,,"905_BRIEF 2","BRIEF-2","","7","AMG0002 Amgen 20180130","Ready for Production","BRIEF-2 5-18y Parent Form from COG0010 NovoNordisk P6 6/4/20"
"1","Behavior Rating Inventory of Executive Function - Adult Version","BRIEF-A Informant","ST21867",,,,,"907_BRIEF A","BRIEF-A","","9","AMG0002 Amgen 20180130","Ready for Production","BRIEF-A 18-90 Adult form COG0009 NovoNordisk P5 6/4/20"
"1","Visit Information","Visit information for post enrollment visit","ST21856",,,,,"01_Visit Info Post Enroll","Visit Information","","1","AMG0002 Amgen 20180130","Ready for Production","Visit information for post Baseline visit from: A Standard Library 6/10/20"
"1","Behavior Rating Inventory of Executive Function, Second Edition","BRIEF-2 Parent Form Scoring","ST21858",,,,,"03_BRIEF 2 Scoring","BRIEF-2 Scoring Summary","","11","AMG0002 Amgen 20180130","Ready for Production","BRIEF2 5-18y Parent Form Scoring COG0010 NovoNordisk P6 6/4/20"
"1","Behavior Rating Inventory of Executive Function - Adult Version","BRIEF-A Informant Scoring","ST21868",,,,,"05_BRIEF A Scoring","BRIEF-A Scoring Summary","","13","AMG0002 Amgen 20180130","Ready for Production","BRIEF-A 18-90 Adult Scoring COG0009 NovoNordisk P5 6/4/20"
"1","Behavior Rating Inventory of Executive Function, Second Edition","BRIEF-2 Parent Form","ST21857",,,,,"905_BRIEF 2","BRIEF-2","","7","AMG0002 Amgen 20180130","Ready for Production","BRIEF-2 5-18y Parent Form from COG0010 NovoNordisk P6 6/4/20"
"1","Behavior Rating Inventory of Executive Function - Adult Version","BRIEF-A Informant","ST21867",,,,,"907_BRIEF A","BRIEF-A","","9","AMG0002 Amgen 20180130","Ready for Production","BRIEF-A 18-90 Adult form COG0009 NovoNordisk P5 6/4/20"
"1","Visit Information","Visit information for post enrollment visit","ST21856",,,,,"01_Visit Info Post Enroll","Visit Information","","1","AMG0002 Amgen 20180130","Ready for Production","Visit information for post Baseline visit from: A Standard Library 6/10/20"
"1","Behavior Rating Inventory of Executive Function, Second Edition","BRIEF-2 Parent Form Scoring","ST21858",,,,,"03_BRIEF 2 Scoring","BRIEF-2 Scoring Summary","","11","AMG0002 Amgen 20180130","Ready for Production","BRIEF2 5-18y Parent Form Scoring COG0010 NovoNordisk P6 6/4/20"
"1","Behavior Rating Inventory of Executive Function - Adult Version","BRIEF-A Informant Scoring","ST21868",,,,,"05_BRIEF A Scoring","BRIEF-A Scoring Summary","","13","AMG0002 Amgen 20180130","Ready for Production","BRIEF-A 18-90 Adult Scoring COG0009 NovoNordisk P5 6/4/20"
"1","Behavior Rating Inventory of Executive Function, Second Edition","BRIEF-2 Parent Form","ST21857",,,,,"905_BRIEF 2","BRIEF-2","","7","AMG0002 Amgen 20180130","Ready for Production","BRIEF-2 5-18y Parent Form from COG0010 NovoNordisk P6 6/4/20"
"1","Behavior Rating Inventory of Executive Function - Adult Version","BRIEF-A Informant","ST21867",,,,,"907_BRIEF A","BRIEF-A","","9","AMG0002 Amgen 20180130","Ready for Production","BRIEF-A 18-90 Adult form COG0009 NovoNordisk P5 6/4/20"
"1","Visit Information","Visit information for post enrollment visit","ST21856",,,,,"01_Visit Info Post Enroll","Visit Information","","1","AMG0002 Amgen 20180130","Ready for Production","Visit information for post Baseline visit from: A Standard Library 6/10/20"
"1","Behavior Rating Inventory of Executive Function, Second Edition","BRIEF-2 Parent Form Scoring","ST21858",,,,,"03_BRIEF 2 Scoring","BRIEF-2 Scoring Summary","","11","AMG0002 Amgen 20180130","Ready for Production","BRIEF2 5-18y Parent Form Scoring COG0010 NovoNordisk P6 6/4/20"
"1","Behavior Rating Inventory of Executive Function - Adult Version","BRIEF-A Informant Scoring","ST21868",,,,,"05_BRIEF A Scoring","BRIEF-A Scoring Summary","","13","AMG0002 Amgen 20180130","Ready for Production","BRIEF-A 18-90 Adult Scoring COG0009 NovoNordisk P5 6/4/20"
"1","Behavior Rating Inventory of Executive Function, Second Edition","BRIEF-2 Parent Form","ST21857",,,,,"905_BRIEF 2","BRIEF-2","","7","AMG0002 Amgen 20180130","Ready for Production","BRIEF-2 5-18y Parent Form from COG0010 NovoNordisk P6 6/4/20"
"1","Behavior Rating Inventory of Executive Function - Adult Version","BRIEF-A Informant","ST21867",,,,,"907_BRIEF A","BRIEF-A","","9","AMG0002 Amgen 20180130","Ready for Production","BRIEF-A 18-90 Adult form COG0009 NovoNordisk P5 6/4/20"
"1","Visit Information","Visit information for post enrollment visit","ST21856",,,,,"01_Visit Info Post Enroll","Visit Information","","1","AMG0002 Amgen 20180130","Ready for Production","Visit information for post Baseline visit from: A Standard Library 6/10/20"
"1","Behavior Rating Inventory of Executive Function, Second Edition","BRIEF-2 Parent Form Scoring","ST21858",,,,,"03_BRIEF 2 Scoring","BRIEF-2 Scoring Summary","","11","AMG0002 Amgen 20180130","Ready for Production","BRIEF2 5-18y Parent Form Scoring COG0010 NovoNordisk P6 6/4/20"
"1","Behavior Rating Inventory of Executive Function - Adult Version","BRIEF-A Informant Scoring","ST21868",,,,,"05_BRIEF A Scoring","BRIEF-A Scoring Summary","","13","AMG0002 Amgen 20180130","Ready for Production","BRIEF-A 18-90 Adult Scoring COG0009 NovoNordisk P5 6/4/20"
"1","Behavior Rating Inventory of Executive Function, Second Edition","BRIEF-2 Parent Form","ST21857",,,,,"905_BRIEF 2","BRIEF-2","","7","AMG0002 Amgen 20180130","Ready for Production","BRIEF-2 5-18y Parent Form from COG0010 NovoNordisk P6 6/4/20"
"1","Behavior Rating Inventory of Executive Function - Adult Version","BRIEF-A Informant","ST21867",,,,,"907_BRIEF A","BRIEF-A","","9","AMG0002 Amgen 20180130","Ready for Production","BRIEF-A 18-90 Adult form COG0009 NovoNordisk P5 6/4/20"
"1","Visit Information","Visit information for post enrollment visit","ST21856",,,,,"01_Visit Info Post Enroll","Visit Information","","1","AMG0002 Amgen 20180130","Ready for Production","Visit information for post Baseline visit from: A Standard Library 6/10/20"
"1","Behavior Rating Inventory of Executive Function, Second Edition","BRIEF-2 Parent Form Scoring","ST21858",,,,,"03_BRIEF 2 Scoring","BRIEF-2 Scoring Summary","","11","AMG0002 Amgen 20180130","Ready for Production","BRIEF2 5-18y Parent Form Scoring COG0010 NovoNordisk P6 6/4/20"
"1","Behavior Rating Inventory of Executive Function - Adult Version","BRIEF-A Informant Scoring","ST21868",,,,,"05_BRIEF A Scoring","BRIEF-A Scoring Summary","","13","AMG0002 Amgen 20180130","Ready for Production","BRIEF-A 18-90 Adult Scoring COG0009 NovoNordisk P5 6/4/20"
"1","Behavior Rating Inventory of Executive Function, Second Edition","BRIEF-2 Parent Form","ST21857",,,,,"905_BRIEF 2","BRIEF-2","","7","AMG0002 Amgen 20180130","Ready for Production","BRIEF-2 5-18y Parent Form from COG0010 NovoNordisk P6 6/4/20"
"1","Behavior Rating Inventory of Executive Function - Adult Version","BRIEF-A Informant","ST21867",,,,,"907_BRIEF A","BRIEF-A","","9","AMG0002 Amgen 20180130","Ready for Production","BRIEF-A 18-90 Adult form COG0009 NovoNordisk P5 6/4/20"
"1","Visit Information","Visit information for post enrollment visit","ST21856",,,,,"01_Visit Info Post Enroll","Visit Information","","1","AMG0002 Amgen 20180130","Ready for Production","Visit information for post Baseline visit from: A Standard Library 6/10/20"
"1","Behavior Rating Inventory of Executive Function, Second Edition","BRIEF-2 Parent Form Scoring","ST21858",,,,,"03_BRIEF 2 Scoring","BRIEF-2 Scoring Summary","","11","AMG0002 Amgen 20180130","Ready for Production","BRIEF2 5-18y Parent Form Scoring COG0010 NovoNordisk P6 6/4/20"
"1","Behavior Rating Inventory of Executive Function - Adult Version","BRIEF-A Informant Scoring","ST21868",,,,,"05_BRIEF A Scoring","BRIEF-A Scoring Summary","","13","AMG0002 Amgen 20180130","Ready for Production","BRIEF-A 18-90 Adult Scoring COG0009 NovoNordisk P5 6/4/20"
"1","Vineland Adaptive Behavior Scales - Third Edition","VABS-3 Communication","ST21849","AMG0002 Amgen 20180130","Early Termination","","20","900_VABS Communication","VABS-3 Communication","","2","AMG0002 Amgen 20180130","Ready for Production","VABS-3 Communication from COG0017 Roche Library 6/10/20"
"1","Behavior Rating Inventory of Executive Function - Preschool Version","BRIEF-P","ST21840","AMG0002 Amgen 20180130","Early Termination","","20","906_BRIEF P","BRIEF-P","","8","AMG0002 Amgen 20180130","Ready for Production","BRIEF-P from COG0010 NovoNordisk P6 6/4/20"
"1","Behavior Rating Inventory of Executive Function, Second Edition","BRIEF-2 Parent Form","ST21857","AMG0002 Amgen 20180130","Early Termination","","20","905_BRIEF 2","BRIEF-2","","7","AMG0002 Amgen 20180130","Ready for Production","BRIEF-2 5-18y Parent Form from COG0010 NovoNordisk P6 6/4/20"
"1","Behavior Rating Inventory of Executive Function - Adult Version","BRIEF-A Informant","ST21867","AMG0002 Amgen 20180130","Early Termination","","20","907_BRIEF A","BRIEF-A","","9","AMG0002 Amgen 20180130","Ready for Production","BRIEF-A 18-90 Adult form COG0009 NovoNordisk P5 6/4/20"
"1","Visit Information","Visit information for ET visit","ST21866","AMG0002 Amgen 20180130","Early Termination","","20","07_Visit Info ET","Visit Information","","1","AMG0002 Amgen 20180130","Ready for Production","Visit information for ET visit from: A Standard Library"
"1","Behavior Rating Inventory of Executive Function, Second Edition","BRIEF-2 Parent Form Scoring","ST21858","AMG0002 Amgen 20180130","Early Termination","","20","03_BRIEF 2 Scoring","BRIEF-2 Scoring Summary","","11","AMG0002 Amgen 20180130","Ready for Production","BRIEF2 5-18y Parent Form Scoring COG0010 NovoNordisk P6 6/4/20"
"1","Behavior Rating Inventory of Executive Function - Preschool Version","BRIEF-P - Scoring","ST21841","AMG0002 Amgen 20180130","Early Termination","","20","04_BRIEF P Scoring","BRIEF-P Scoring Summary","","12","AMG0002 Amgen 20180130","Ready for Production","BRIEF-P - Scoring COG0010 NovoNordisk P6 6/4/20"
"1","Behavior Rating Inventory of Executive Function - Adult Version","BRIEF-A Informant Scoring","ST21868","AMG0002 Amgen 20180130","Early Termination","","20","05_BRIEF A Scoring","BRIEF-A Scoring Summary","","13","AMG0002 Amgen 20180130","Ready for Production","BRIEF-A 18-90 Adult Scoring COG0009 NovoNordisk P5 6/4/20"
"1","Vineland Adaptive Behavior Scales - Third Edition","VABS-3 Score Summary","ST21855","AMG0002 Amgen 20180130","Early Termination","","20","02_VABS Scoring","VABS-3 Scoring Summary","","10","AMG0002 Amgen 20180130","Ready for Production","VABS-3 Score Summary  from COG0017 Roche Library 6/10/20"
"1","Vineland Adaptive Behavior Scales - Third Edition","VABS-3 Daily Living","ST21850","AMG0002 Amgen 20180130","Early Termination","","20","901_VABS Daily Living","VABS-3 Daily Living","","3","AMG0002 Amgen 20180130","Ready for Production","VABS-3 Daily Living Skills from COG0017 Roche Library 6/10/20"
"1","Vineland Adaptive Behavior Scales - Third Edition","VABS-3 Social Skills and Relationships","ST21852","AMG0002 Amgen 20180130","Early Termination","","20","902_VABS Social Skills","VABS-3 Social Skills and Relationships","","4","AMG0002 Amgen 20180130","Ready for Production","VABS-3 Socialization from COG0017 Roche Library 6/10/20"
"1","Vineland Adaptive Behavior Scales - Third Edition","VABS-3 Physical Activity","ST21851","AMG0002 Amgen 20180130","Early Termination","","20","903_VABS Physical Activity","VABS-3 Physical Activity","","5","AMG0002 Amgen 20180130","Ready for Production","VABS-3 Motor Skills from COG0017 Roche Library 6/10/20"
"1","Vineland Adaptive Behavior Scales - Third Edition","VABS-3 Problem Behaviors","ST21853","AMG0002 Amgen 20180130","Early Termination","","20","904_VABS Problem Behaviors","VABS-3 Problem Behaviors","","6","AMG0002 Amgen 20180130","Ready for Production","VABS-3 Maladaptive Behavior from COG0017 Roche Library 6/10/20"
"1","Vineland Adaptive Behavior Scales - Third Edition","VABS-3 Communication","ST21849","AMG0002 Amgen 20180130","Long Term Follow-up Month 144","","19","900_VABS Communication","VABS-3 Communication","","2","AMG0002 Amgen 20180130","Ready for Production","VABS-3 Communication from COG0017 Roche Library 6/10/20"
"1","Behavior Rating Inventory of Executive Function - Preschool Version","BRIEF-P","ST21840",,,,,,,,,"AMG0002 Amgen 20180130","Ready for Production","BRIEF-P from COG0010 NovoNordisk P6 6/4/20"
"1","Behavior Rating Inventory of Executive Function, Second Edition","BRIEF-2 Parent Form","ST21857","AMG0002 Amgen 20180130","Long Term Follow-up Month 144","","19","905_BRIEF 2","BRIEF-2","","7","AMG0002 Amgen 20180130","Ready for Production","BRIEF-2 5-18y Parent Form from COG0010 NovoNordisk P6 6/4/20"
"1","Behavior Rating Inventory of Executive Function - Adult Version","BRIEF-A Informant","ST21867","AMG0002 Amgen 20180130","Long Term Follow-up Month 144","","19","907_BRIEF A","BRIEF-A","","9","AMG0002 Amgen 20180130","Ready for Production","BRIEF-A 18-90 Adult form COG0009 NovoNordisk P5 6/4/20"
"1","Visit Information","Visit information for post enrollment visit","ST21856","AMG0002 Amgen 20180130","Long Term Follow-up Month 144","","19","01_Visit Info Post Enroll","Visit Information","","1","AMG0002 Amgen 20180130","Ready for Production","Visit information for post Baseline visit from: A Standard Library 6/10/20"
"1","Behavior Rating Inventory of Executive Function, Second Edition","BRIEF-2 Parent Form Scoring","ST21858","AMG0002 Amgen 20180130","Long Term Follow-up Month 144","","19","03_BRIEF 2 Scoring","BRIEF-2 Scoring Summary","","11","AMG0002 Amgen 20180130","Ready for Production","BRIEF2 5-18y Parent Form Scoring COG0010 NovoNordisk P6 6/4/20"
"1","Behavior Rating Inventory of Executive Function - Preschool Version","BRIEF-P - Scoring","ST21841",,,,,,,,,"AMG0002 Amgen 20180130","Ready for Production","BRIEF-P - Scoring COG0010 NovoNordisk P6 6/4/20"
"1","Behavior Rating Inventory of Executive Function - Adult Version","BRIEF-A Informant Scoring","ST21868","AMG0002 Amgen 20180130","Long Term Follow-up Month 144","","19","05_BRIEF A Scoring","BRIEF-A Scoring Summary","","13","AMG0002 Amgen 20180130","Ready for Production","BRIEF-A 18-90 Adult Scoring COG0009 NovoNordisk P5 6/4/20"
"1","Vineland Adaptive Behavior Scales - Third Edition","VABS-3 Score Summary","ST21855","AMG0002 Amgen 20180130","Long Term Follow-up Month 144","","19","02_VABS Scoring","VABS-3 Scoring Summary","","10","AMG0002 Amgen 20180130","Ready for Production","VABS-3 Score Summary  from COG0017 Roche Library 6/10/20"
"1","Vineland Adaptive Behavior Scales - Third Edition","VABS-3 Daily Living","ST21850","AMG0002 Amgen 20180130","Long Term Follow-up Month 144","","19","901_VABS Daily Living","VABS-3 Daily Living","","3","AMG0002 Amgen 20180130","Ready for Production","VABS-3 Daily Living Skills from COG0017 Roche Library 6/10/20"
"1","Vineland Adaptive Behavior Scales - Third Edition","VABS-3 Social Skills and Relationships","ST21852","AMG0002 Amgen 20180130","Long Term Follow-up Month 144","","19","902_VABS Social Skills","VABS-3 Social Skills and Relationships","","4","AMG0002 Amgen 20180130","Ready for Production","VABS-3 Socialization from COG0017 Roche Library 6/10/20"
"1","Vineland Adaptive Behavior Scales - Third Edition","VABS-3 Physical Activity","ST21851","AMG0002 Amgen 20180130","Long Term Follow-up Month 144","","19","903_VABS Physical Activity","VABS-3 Physical Activity","","5","AMG0002 Amgen 20180130","Ready for Production","VABS-3 Motor Skills from COG0017 Roche Library 6/10/20"
"1","Vineland Adaptive Behavior Scales - Third Edition","VABS-3 Problem Behaviors","ST21853","AMG0002 Amgen 20180130","Long Term Follow-up Month 144","","19","904_VABS Problem Behaviors","VABS-3 Problem Behaviors","","6","AMG0002 Amgen 20180130","Ready for Production","VABS-3 Maladaptive Behavior from COG0017 Roche Library 6/10/20"
"1","Vineland Adaptive Behavior Scales - Third Edition","VABS-3 Communication","ST21849","AMG0002 Amgen 20180130","Long Term Follow-up Month 132","","18","900_VABS Communication","VABS-3 Communication","","2","AMG0002 Amgen 20180130","Ready for Production","VABS-3 Communication from COG0017 Roche Library 6/10/20"
"1","Behavior Rating Inventory of Executive Function - Preschool Version","BRIEF-P","ST21840",,,,,,,,,"AMG0002 Amgen 20180130","Ready for Production","BRIEF-P from COG0010 NovoNordisk P6 6/4/20"
"1","Behavior Rating Inventory of Executive Function, Second Edition","BRIEF-2 Parent Form","ST21857","AMG0002 Amgen 20180130","Long Term Follow-up Month 132","","18","905_BRIEF 2","BRIEF-2","","7","AMG0002 Amgen 20180130","Ready for Production","BRIEF-2 5-18y Parent Form from COG0010 NovoNordisk P6 6/4/20"
"1","Behavior Rating Inventory of Executive Function - Adult Version","BRIEF-A Informant","ST21867","AMG0002 Amgen 20180130","Long Term Follow-up Month 132","","18","907_BRIEF A","BRIEF-A","","9","AMG0002 Amgen 20180130","Ready for Production","BRIEF-A 18-90 Adult form COG0009 NovoNordisk P5 6/4/20"
"1","Visit Information","Visit information for post enrollment visit","ST21856","AMG0002 Amgen 20180130","Long Term Follow-up Month 132","","18","01_Visit Info Post Enroll","Visit Information","","1","AMG0002 Amgen 20180130","Ready for Production","Visit information for post Baseline visit from: A Standard Library 6/10/20"
"1","Behavior Rating Inventory of Executive Function, Second Edition","BRIEF-2 Parent Form Scoring","ST21858","AMG0002 Amgen 20180130","Long Term Follow-up Month 132","","18","03_BRIEF 2 Scoring","BRIEF-2 Scoring Summary","","11","AMG0002 Amgen 20180130","Ready for Production","BRIEF2 5-18y Parent Form Scoring COG0010 NovoNordisk P6 6/4/20"
"1","Behavior Rating Inventory of Executive Function - Preschool Version","BRIEF-P - Scoring","ST21841",,,,,,,,,"AMG0002 Amgen 20180130","Ready for Production","BRIEF-P - Scoring COG0010 NovoNordisk P6 6/4/20"
"1","Behavior Rating Inventory of Executive Function - Adult Version","BRIEF-A Informant Scoring","ST21868","AMG0002 Amgen 20180130","Long Term Follow-up Month 132","","18","05_BRIEF A Scoring","BRIEF-A Scoring Summary","","13","AMG0002 Amgen 20180130","Ready for Production","BRIEF-A 18-90 Adult Scoring COG0009 NovoNordisk P5 6/4/20"
"1","Vineland Adaptive Behavior Scales - Third Edition","VABS-3 Score Summary","ST21855","AMG0002 Amgen 20180130","Long Term Follow-up Month 132","","18","02_VABS Scoring","VABS-3 Scoring Summary","","10","AMG0002 Amgen 20180130","Ready for Production","VABS-3 Score Summary  from COG0017 Roche Library 6/10/20"
"1","Vineland Adaptive Behavior Scales - Third Edition","VABS-3 Daily Living","ST21850","AMG0002 Amgen 20180130","Long Term Follow-up Month 132","","18","901_VABS Daily Living","VABS-3 Daily Living","","3","AMG0002 Amgen 20180130","Ready for Production","VABS-3 Daily Living Skills from COG0017 Roche Library 6/10/20"
"1","Vineland Adaptive Behavior Scales - Third Edition","VABS-3 Social Skills and Relationships","ST21852","AMG0002 Amgen 20180130","Long Term Follow-up Month 132","","18","902_VABS Social Skills","VABS-3 Social Skills and Relationships","","4","AMG0002 Amgen 20180130","Ready for Production","VABS-3 Socialization from COG0017 Roche Library 6/10/20"
"1","Vineland Adaptive Behavior Scales - Third Edition","VABS-3 Physical Activity","ST21851","AMG0002 Amgen 20180130","Long Term Follow-up Month 132","","18","903_VABS Physical Activity","VABS-3 Physical Activity","","5","AMG0002 Amgen 20180130","Ready for Production","VABS-3 Motor Skills from COG0017 Roche Library 6/10/20"
"1","Vineland Adaptive Behavior Scales - Third Edition","VABS-3 Problem Behaviors","ST21853","AMG0002 Amgen 20180130","Long Term Follow-up Month 132","","18","904_VABS Problem Behaviors","VABS-3 Problem Behaviors","","6","AMG0002 Amgen 20180130","Ready for Production","VABS-3 Maladaptive Behavior from COG0017 Roche Library 6/10/20"
"1","Vineland Adaptive Behavior Scales - Third Edition","VABS-3 Communication","ST21849","AMG0002 Amgen 20180130","Long Term Follow-up Month 120","","17","900_VABS Communication","VABS-3 Communication","","2","AMG0002 Amgen 20180130","Ready for Production","VABS-3 Communication from COG0017 Roche Library 6/10/20"
"1","Behavior Rating Inventory of Executive Function - Preschool Version","BRIEF-P","ST21840",,,,,,,,,"AMG0002 Amgen 20180130","Ready for Production","BRIEF-P from COG0010 NovoNordisk P6 6/4/20"
"1","Behavior Rating Inventory of Executive Function, Second Edition","BRIEF-2 Parent Form","ST21857","AMG0002 Amgen 20180130","Long Term Follow-up Month 120","","17","905_BRIEF 2","BRIEF-2","","7","AMG0002 Amgen 20180130","Ready for Production","BRIEF-2 5-18y Parent Form from COG0010 NovoNordisk P6 6/4/20"
"1","Behavior Rating Inventory of Executive Function - Adult Version","BRIEF-A Informant","ST21867","AMG0002 Amgen 20180130","Long Term Follow-up Month 120","","17","907_BRIEF A","BRIEF-A","","9","AMG0002 Amgen 20180130","Ready for Production","BRIEF-A 18-90 Adult form COG0009 NovoNordisk P5 6/4/20"
"1","Visit Information","Visit information for post enrollment visit","ST21856","AMG0002 Amgen 20180130","Long Term Follow-up Month 120","","17","01_Visit Info Post Enroll","Visit Information","","1","AMG0002 Amgen 20180130","Ready for Production","Visit information for post Baseline visit from: A Standard Library 6/10/20"
"1","Behavior Rating Inventory of Executive Function, Second Edition","BRIEF-2 Parent Form Scoring","ST21858","AMG0002 Amgen 20180130","Long Term Follow-up Month 120","","17","03_BRIEF 2 Scoring","BRIEF-2 Scoring Summary","","11","AMG0002 Amgen 20180130","Ready for Production","BRIEF2 5-18y Parent Form Scoring COG0010 NovoNordisk P6 6/4/20"
"1","Behavior Rating Inventory of Executive Function - Preschool Version","BRIEF-P - Scoring","ST21841",,,,,,,,,"AMG0002 Amgen 20180130","Ready for Production","BRIEF-P - Scoring COG0010 NovoNordisk P6 6/4/20"
"1","Behavior Rating Inventory of Executive Function - Adult Version","BRIEF-A Informant Scoring","ST21868","AMG0002 Amgen 20180130","Long Term Follow-up Month 120","","17","05_BRIEF A Scoring","BRIEF-A Scoring Summary","","13","AMG0002 Amgen 20180130","Ready for Production","BRIEF-A 18-90 Adult Scoring COG0009 NovoNordisk P5 6/4/20"
"1","Vineland Adaptive Behavior Scales - Third Edition","VABS-3 Score Summary","ST21855","AMG0002 Amgen 20180130","Long Term Follow-up Month 120","","17","02_VABS Scoring","VABS-3 Scoring Summary","","10","AMG0002 Amgen 20180130","Ready for Production","VABS-3 Score Summary  from COG0017 Roche Library 6/10/20"
"1","Vineland Adaptive Behavior Scales - Third Edition","VABS-3 Daily Living","ST21850","AMG0002 Amgen 20180130","Long Term Follow-up Month 120","","17","901_VABS Daily Living","VABS-3 Daily Living","","3","AMG0002 Amgen 20180130","Ready for Production","VABS-3 Daily Living Skills from COG0017 Roche Library 6/10/20"
"1","Vineland Adaptive Behavior Scales - Third Edition","VABS-3 Social Skills and Relationships","ST21852","AMG0002 Amgen 20180130","Long Term Follow-up Month 120","","17","902_VABS Social Skills","VABS-3 Social Skills and Relationships","","4","AMG0002 Amgen 20180130","Ready for Production","VABS-3 Socialization from COG0017 Roche Library 6/10/20"
"1","Vineland Adaptive Behavior Scales - Third Edition","VABS-3 Physical Activity","ST21851","AMG0002 Amgen 20180130","Long Term Follow-up Month 120","","17","903_VABS Physical Activity","VABS-3 Physical Activity","","5","AMG0002 Amgen 20180130","Ready for Production","VABS-3 Motor Skills from COG0017 Roche Library 6/10/20"
"1","Vineland Adaptive Behavior Scales - Third Edition","VABS-3 Problem Behaviors","ST21853","AMG0002 Amgen 20180130","Long Term Follow-up Month 120","","17","904_VABS Problem Behaviors","VABS-3 Problem Behaviors","","6","AMG0002 Amgen 20180130","Ready for Production","VABS-3 Maladaptive Behavior from COG0017 Roche Library 6/10/20"
"1","Vineland Adaptive Behavior Scales - Third Edition","VABS-3 Communication","ST21849","AMG0002 Amgen 20180130","Long Term Follow-up Month 108","","16","900_VABS Communication","VABS-3 Communication","","2","AMG0002 Amgen 20180130","Ready for Production","VABS-3 Communication from COG0017 Roche Library 6/10/20"
"1","Behavior Rating Inventory of Executive Function - Preschool Version","BRIEF-P","ST21840",,,,,,,,,"AMG0002 Amgen 20180130","Ready for Production","BRIEF-P from COG0010 NovoNordisk P6 6/4/20"
"1","Behavior Rating Inventory of Executive Function, Second Edition","BRIEF-2 Parent Form","ST21857","AMG0002 Amgen 20180130","Long Term Follow-up Month 108","","16","905_BRIEF 2","BRIEF-2","","7","AMG0002 Amgen 20180130","Ready for Production","BRIEF-2 5-18y Parent Form from COG0010 NovoNordisk P6 6/4/20"
"1","Behavior Rating Inventory of Executive Function - Adult Version","BRIEF-A Informant","ST21867","AMG0002 Amgen 20180130","Long Term Follow-up Month 108","","16","907_BRIEF A","BRIEF-A","","9","AMG0002 Amgen 20180130","Ready for Production","BRIEF-A 18-90 Adult form COG0009 NovoNordisk P5 6/4/20"
"1","Visit Information","Visit information for post enrollment visit","ST21856","AMG0002 Amgen 20180130","Long Term Follow-up Month 108","","16","01_Visit Info Post Enroll","Visit Information","","1","AMG0002 Amgen 20180130","Ready for Production","Visit information for post Baseline visit from: A Standard Library 6/10/20"
"1","Behavior Rating Inventory of Executive Function, Second Edition","BRIEF-2 Parent Form Scoring","ST21858","AMG0002 Amgen 20180130","Long Term Follow-up Month 108","","16","03_BRIEF 2 Scoring","BRIEF-2 Scoring Summary","","11","AMG0002 Amgen 20180130","Ready for Production","BRIEF2 5-18y Parent Form Scoring COG0010 NovoNordisk P6 6/4/20"
"1","Behavior Rating Inventory of Executive Function - Preschool Version","BRIEF-P - Scoring","ST21841",,,,,,,,,"AMG0002 Amgen 20180130","Ready for Production","BRIEF-P - Scoring COG0010 NovoNordisk P6 6/4/20"
"1","Behavior Rating Inventory of Executive Function - Adult Version","BRIEF-A Informant Scoring","ST21868","AMG0002 Amgen 20180130","Long Term Follow-up Month 108","","16","05_BRIEF A Scoring","BRIEF-A Scoring Summary","","13","AMG0002 Amgen 20180130","Ready for Production","BRIEF-A 18-90 Adult Scoring COG0009 NovoNordisk P5 6/4/20"
"1","Vineland Adaptive Behavior Scales - Third Edition","VABS-3 Score Summary","ST21855","AMG0002 Amgen 20180130","Long Term Follow-up Month 108","","16","02_VABS Scoring","VABS-3 Scoring Summary","","10","AMG0002 Amgen 20180130","Ready for Production","VABS-3 Score Summary  from COG0017 Roche Library 6/10/20"
"1","Vineland Adaptive Behavior Scales - Third Edition","VABS-3 Daily Living","ST21850","AMG0002 Amgen 20180130","Long Term Follow-up Month 108","","16","901_VABS Daily Living","VABS-3 Daily Living","","3","AMG0002 Amgen 20180130","Ready for Production","VABS-3 Daily Living Skills from COG0017 Roche Library 6/10/20"
"1","Vineland Adaptive Behavior Scales - Third Edition","VABS-3 Social Skills and Relationships","ST21852","AMG0002 Amgen 20180130","Long Term Follow-up Month 108","","16","902_VABS Social Skills","VABS-3 Social Skills and Relationships","","4","AMG0002 Amgen 20180130","Ready for Production","VABS-3 Socialization from COG0017 Roche Library 6/10/20"
"1","Vineland Adaptive Behavior Scales - Third Edition","VABS-3 Physical Activity","ST21851","AMG0002 Amgen 20180130","Long Term Follow-up Month 108","","16","903_VABS Physical Activity","VABS-3 Physical Activity","","5","AMG0002 Amgen 20180130","Ready for Production","VABS-3 Motor Skills from COG0017 Roche Library 6/10/20"
"1","Vineland Adaptive Behavior Scales - Third Edition","VABS-3 Problem Behaviors","ST21853","AMG0002 Amgen 20180130","Long Term Follow-up Month 108","","16","904_VABS Problem Behaviors","VABS-3 Problem Behaviors","","6","AMG0002 Amgen 20180130","Ready for Production","VABS-3 Maladaptive Behavior from COG0017 Roche Library 6/10/20"
"1","Vineland Adaptive Behavior Scales - Third Edition","VABS-3 Communication","ST21849","AMG0002 Amgen 20180130","Long Term Follow-up Month 96","","15","900_VABS Communication","VABS-3 Communication","","2","AMG0002 Amgen 20180130","Ready for Production","VABS-3 Communication from COG0017 Roche Library 6/10/20"
"1","Behavior Rating Inventory of Executive Function - Preschool Version","BRIEF-P","ST21840",,,,,,,,,"AMG0002 Amgen 20180130","Ready for Production","BRIEF-P from COG0010 NovoNordisk P6 6/4/20"
"1","Behavior Rating Inventory of Executive Function, Second Edition","BRIEF-2 Parent Form","ST21857","AMG0002 Amgen 20180130","Long Term Follow-up Month 96","","15","905_BRIEF 2","BRIEF-2","","7","AMG0002 Amgen 20180130","Ready for Production","BRIEF-2 5-18y Parent Form from COG0010 NovoNordisk P6 6/4/20"
"1","Behavior Rating Inventory of Executive Function - Adult Version","BRIEF-A Informant","ST21867","AMG0002 Amgen 20180130","Long Term Follow-up Month 96","","15","907_BRIEF A","BRIEF-A","","9","AMG0002 Amgen 20180130","Ready for Production","BRIEF-A 18-90 Adult form COG0009 NovoNordisk P5 6/4/20"
"1","Visit Information","Visit information for post enrollment visit","ST21856","AMG0002 Amgen 20180130","Long Term Follow-up Month 96","","15","01_Visit Info Post Enroll","Visit Information","","1","AMG0002 Amgen 20180130","Ready for Production","Visit information for post Baseline visit from: A Standard Library 6/10/20"
"1","Behavior Rating Inventory of Executive Function, Second Edition","BRIEF-2 Parent Form Scoring","ST21858","AMG0002 Amgen 20180130","Long Term Follow-up Month 96","","15","03_BRIEF 2 Scoring","BRIEF-2 Scoring Summary","","11","AMG0002 Amgen 20180130","Ready for Production","BRIEF2 5-18y Parent Form Scoring COG0010 NovoNordisk P6 6/4/20"
"1","Behavior Rating Inventory of Executive Function - Preschool Version","BRIEF-P - Scoring","ST21841",,,,,,,,,"AMG0002 Amgen 20180130","Ready for Production","BRIEF-P - Scoring COG0010 NovoNordisk P6 6/4/20"
"1","Behavior Rating Inventory of Executive Function - Adult Version","BRIEF-A Informant Scoring","ST21868","AMG0002 Amgen 20180130","Long Term Follow-up Month 96","","15","05_BRIEF A Scoring","BRIEF-A Scoring Summary","","13","AMG0002 Amgen 20180130","Ready for Production","BRIEF-A 18-90 Adult Scoring COG0009 NovoNordisk P5 6/4/20"
"1","Vineland Adaptive Behavior Scales - Third Edition","VABS-3 Score Summary","ST21855","AMG0002 Amgen 20180130","Long Term Follow-up Month 96","","15","02_VABS Scoring","VABS-3 Scoring Summary","","10","AMG0002 Amgen 20180130","Ready for Production","VABS-3 Score Summary  from COG0017 Roche Library 6/10/20"
"1","Vineland Adaptive Behavior Scales - Third Edition","VABS-3 Daily Living","ST21850","AMG0002 Amgen 20180130","Long Term Follow-up Month 96","","15","901_VABS Daily Living","VABS-3 Daily Living","","3","AMG0002 Amgen 20180130","Ready for Production","VABS-3 Daily Living Skills from COG0017 Roche Library 6/10/20"
"1","Vineland Adaptive Behavior Scales - Third Edition","VABS-3 Social Skills and Relationships","ST21852","AMG0002 Amgen 20180130","Long Term Follow-up Month 96","","15","902_VABS Social Skills","VABS-3 Social Skills and Relationships","","4","AMG0002 Amgen 20180130","Ready for Production","VABS-3 Socialization from COG0017 Roche Library 6/10/20"
"1","Vineland Adaptive Behavior Scales - Third Edition","VABS-3 Physical Activity","ST21851","AMG0002 Amgen 20180130","Long Term Follow-up Month 96","","15","903_VABS Physical Activity","VABS-3 Physical Activity","","5","AMG0002 Amgen 20180130","Ready for Production","VABS-3 Motor Skills from COG0017 Roche Library 6/10/20"
"1","Vineland Adaptive Behavior Scales - Third Edition","VABS-3 Problem Behaviors","ST21853","AMG0002 Amgen 20180130","Long Term Follow-up Month 96","","15","904_VABS Problem Behaviors","VABS-3 Problem Behaviors","","6","AMG0002 Amgen 20180130","Ready for Production","VABS-3 Maladaptive Behavior from COG0017 Roche Library 6/10/20"
"1","Vineland Adaptive Behavior Scales - Third Edition","VABS-3 Communication","ST21849","AMG0002 Amgen 20180130","Long Term Follow-up Month 84","","14","900_VABS Communication","VABS-3 Communication","","2","AMG0002 Amgen 20180130","Ready for Production","VABS-3 Communication from COG0017 Roche Library 6/10/20"
"1","Behavior Rating Inventory of Executive Function - Preschool Version","BRIEF-P","ST21840",,,,,,,,,"AMG0002 Amgen 20180130","Ready for Production","BRIEF-P from COG0010 NovoNordisk P6 6/4/20"
"1","Behavior Rating Inventory of Executive Function, Second Edition","BRIEF-2 Parent Form","ST21857","AMG0002 Amgen 20180130","Long Term Follow-up Month 84","","14","905_BRIEF 2","BRIEF-2","","7","AMG0002 Amgen 20180130","Ready for Production","BRIEF-2 5-18y Parent Form from COG0010 NovoNordisk P6 6/4/20"
"1","Behavior Rating Inventory of Executive Function - Adult Version","BRIEF-A Informant","ST21867","AMG0002 Amgen 20180130","Long Term Follow-up Month 84","","14","907_BRIEF A","BRIEF-A","","9","AMG0002 Amgen 20180130","Ready for Production","BRIEF-A 18-90 Adult form COG0009 NovoNordisk P5 6/4/20"
"1","Visit Information","Visit information for post enrollment visit","ST21856","AMG0002 Amgen 20180130","Long Term Follow-up Month 84","","14","01_Visit Info Post Enroll","Visit Information","","1","AMG0002 Amgen 20180130","Ready for Production","Visit information for post Baseline visit from: A Standard Library 6/10/20"
"1","Behavior Rating Inventory of Executive Function, Second Edition","BRIEF-2 Parent Form Scoring","ST21858","AMG0002 Amgen 20180130","Long Term Follow-up Month 84","","14","03_BRIEF 2 Scoring","BRIEF-2 Scoring Summary","","11","AMG0002 Amgen 20180130","Ready for Production","BRIEF2 5-18y Parent Form Scoring COG0010 NovoNordisk P6 6/4/20"
"1","Behavior Rating Inventory of Executive Function - Preschool Version","BRIEF-P - Scoring","ST21841",,,,,,,,,"AMG0002 Amgen 20180130","Ready for Production","BRIEF-P - Scoring COG0010 NovoNordisk P6 6/4/20"
"1","Behavior Rating Inventory of Executive Function - Adult Version","BRIEF-A Informant Scoring","ST21868","AMG0002 Amgen 20180130","Long Term Follow-up Month 84","","14","05_BRIEF A Scoring","BRIEF-A Scoring Summary","","13","AMG0002 Amgen 20180130","Ready for Production","BRIEF-A 18-90 Adult Scoring COG0009 NovoNordisk P5 6/4/20"
"1","Vineland Adaptive Behavior Scales - Third Edition","VABS-3 Score Summary","ST21855","AMG0002 Amgen 20180130","Long Term Follow-up Month 84","","14","02_VABS Scoring","VABS-3 Scoring Summary","","10","AMG0002 Amgen 20180130","Ready for Production","VABS-3 Score Summary  from COG0017 Roche Library 6/10/20"
"1","Vineland Adaptive Behavior Scales - Third Edition","VABS-3 Daily Living","ST21850","AMG0002 Amgen 20180130","Long Term Follow-up Month 84","","14","901_VABS Daily Living","VABS-3 Daily Living","","3","AMG0002 Amgen 20180130","Ready for Production","VABS-3 Daily Living Skills from COG0017 Roche Library 6/10/20"
"1","Vineland Adaptive Behavior Scales - Third Edition","VABS-3 Social Skills and Relationships","ST21852","AMG0002 Amgen 20180130","Long Term Follow-up Month 84","","14","902_VABS Social Skills","VABS-3 Social Skills and Relationships","","4","AMG0002 Amgen 20180130","Ready for Production","VABS-3 Socialization from COG0017 Roche Library 6/10/20"
"1","Vineland Adaptive Behavior Scales - Third Edition","VABS-3 Physical Activity","ST21851","AMG0002 Amgen 20180130","Long Term Follow-up Month 84","","14","903_VABS Physical Activity","VABS-3 Physical Activity","","5","AMG0002 Amgen 20180130","Ready for Production","VABS-3 Motor Skills from COG0017 Roche Library 6/10/20"
"1","Vineland Adaptive Behavior Scales - Third Edition","VABS-3 Problem Behaviors","ST21853","AMG0002 Amgen 20180130","Long Term Follow-up Month 84","","14","904_VABS Problem Behaviors","VABS-3 Problem Behaviors","","6","AMG0002 Amgen 20180130","Ready for Production","VABS-3 Maladaptive Behavior from COG0017 Roche Library 6/10/20"
"1","Vineland Adaptive Behavior Scales - Third Edition","VABS-3 Communication","ST21849","AMG0002 Amgen 20180130","Long Term Follow-up Month 72","","13","900_VABS Communication","VABS-3 Communication","","2","AMG0002 Amgen 20180130","Ready for Production","VABS-3 Communication from COG0017 Roche Library 6/10/20"
"1","Behavior Rating Inventory of Executive Function - Preschool Version","BRIEF-P","ST21840",,,,,,,,,"AMG0002 Amgen 20180130","Ready for Production","BRIEF-P from COG0010 NovoNordisk P6 6/4/20"
"1","Behavior Rating Inventory of Executive Function, Second Edition","BRIEF-2 Parent Form","ST21857","AMG0002 Amgen 20180130","Long Term Follow-up Month 72","","13","905_BRIEF 2","BRIEF-2","","7","AMG0002 Amgen 20180130","Ready for Production","BRIEF-2 5-18y Parent Form from COG0010 NovoNordisk P6 6/4/20"
"1","Behavior Rating Inventory of Executive Function - Adult Version","BRIEF-A Informant","ST21867","AMG0002 Amgen 20180130","Long Term Follow-up Month 72","","13","907_BRIEF A","BRIEF-A","","9","AMG0002 Amgen 20180130","Ready for Production","BRIEF-A 18-90 Adult form COG0009 NovoNordisk P5 6/4/20"
"1","Visit Information","Visit information for post enrollment visit","ST21856","AMG0002 Amgen 20180130","Long Term Follow-up Month 72","","13","01_Visit Info Post Enroll","Visit Information","","1","AMG0002 Amgen 20180130","Ready for Production","Visit information for post Baseline visit from: A Standard Library 6/10/20"
"1","Behavior Rating Inventory of Executive Function, Second Edition","BRIEF-2 Parent Form Scoring","ST21858","AMG0002 Amgen 20180130","Long Term Follow-up Month 72","","13","03_BRIEF 2 Scoring","BRIEF-2 Scoring Summary","","11","AMG0002 Amgen 20180130","Ready for Production","BRIEF2 5-18y Parent Form Scoring COG0010 NovoNordisk P6 6/4/20"
"1","Behavior Rating Inventory of Executive Function - Preschool Version","BRIEF-P - Scoring","ST21841",,,,,,,,,"AMG0002 Amgen 20180130","Ready for Production","BRIEF-P - Scoring COG0010 NovoNordisk P6 6/4/20"
"1","Behavior Rating Inventory of Executive Function - Adult Version","BRIEF-A Informant Scoring","ST21868","AMG0002 Amgen 20180130","Long Term Follow-up Month 72","","13","05_BRIEF A Scoring","BRIEF-A Scoring Summary","","13","AMG0002 Amgen 20180130","Ready for Production","BRIEF-A 18-90 Adult Scoring COG0009 NovoNordisk P5 6/4/20"
"1","Vineland Adaptive Behavior Scales - Third Edition","VABS-3 Score Summary","ST21855","AMG0002 Amgen 20180130","Long Term Follow-up Month 72","","13","02_VABS Scoring","VABS-3 Scoring Summary","","10","AMG0002 Amgen 20180130","Ready for Production","VABS-3 Score Summary  from COG0017 Roche Library 6/10/20"
"1","Vineland Adaptive Behavior Scales - Third Edition","VABS-3 Daily Living","ST21850","AMG0002 Amgen 20180130","Long Term Follow-up Month 72","","13","901_VABS Daily Living","VABS-3 Daily Living","","3","AMG0002 Amgen 20180130","Ready for Production","VABS-3 Daily Living Skills from COG0017 Roche Library 6/10/20"
"1","Vineland Adaptive Behavior Scales - Third Edition","VABS-3 Social Skills and Relationships","ST21852","AMG0002 Amgen 20180130","Long Term Follow-up Month 72","","13","902_VABS Social Skills","VABS-3 Social Skills and Relationships","","4","AMG0002 Amgen 20180130","Ready for Production","VABS-3 Socialization from COG0017 Roche Library 6/10/20"
"1","Vineland Adaptive Behavior Scales - Third Edition","VABS-3 Physical Activity","ST21851","AMG0002 Amgen 20180130","Long Term Follow-up Month 72","","13","903_VABS Physical Activity","VABS-3 Physical Activity","","5","AMG0002 Amgen 20180130","Ready for Production","VABS-3 Motor Skills from COG0017 Roche Library 6/10/20"
"1","Vineland Adaptive Behavior Scales - Third Edition","VABS-3 Problem Behaviors","ST21853","AMG0002 Amgen 20180130","Long Term Follow-up Month 72","","13","904_VABS Problem Behaviors","VABS-3 Problem Behaviors","","6","AMG0002 Amgen 20180130","Ready for Production","VABS-3 Maladaptive Behavior from COG0017 Roche Library 6/10/20"
